algo_tb.vcd
$date
  Thu Feb 12 19:21:05 2015
$end
$version
  GHDL v0
$end
$timescale
  1 fs
$end
$var reg 1 ! horl $end
$var reg 1 " clr $end
$var reg 32 # key_in_4_4[31:0] $end
$var reg 32 $ key_in_3_4[31:0] $end
$var reg 32 % key_in_2_4[31:0] $end
$var reg 32 & key_in_1_4[31:0] $end
$var reg 1 ' key_in_ok $end
$var reg 1 ( key_in_ack $end
$var reg 32 ) data_in_4_4[31:0] $end
$var reg 32 * data_in_3_4[31:0] $end
$var reg 32 + data_in_2_4[31:0] $end
$var reg 32 , data_in_1_4[31:0] $end
$var reg 1 - data_in_ok $end
$var reg 1 . data_in_ack $end
$var reg 32 / data_out_4_4[31:0] $end
$var reg 32 0 data_out_3_4[31:0] $end
$var reg 32 1 data_out_2_4[31:0] $end
$var reg 32 2 data_out_1_4[31:0] $end
$var reg 1 3 data_out_ok $end
$var reg 1 4 data_out_ack $end
$scope module u0 $end
$var reg 1 5 horl $end
$var reg 1 6 clr $end
$var reg 32 7 key_in_4_4[31:0] $end
$var reg 32 8 key_in_3_4[31:0] $end
$var reg 32 9 key_in_2_4[31:0] $end
$var reg 32 : key_in_1_4[31:0] $end
$var reg 1 ; key_in_ok $end
$var reg 1 < key_in_ack $end
$var reg 32 = data_in_4_4[31:0] $end
$var reg 32 > data_in_3_4[31:0] $end
$var reg 32 ? data_in_2_4[31:0] $end
$var reg 32 @ data_in_1_4[31:0] $end
$var reg 1 A data_in_ok $end
$var reg 1 B data_in_ack $end
$var reg 32 C data_out_4_4[31:0] $end
$var reg 32 D data_out_3_4[31:0] $end
$var reg 32 E data_out_2_4[31:0] $end
$var reg 32 F data_out_1_4[31:0] $end
$var reg 1 G data_out_ok $end
$var reg 1 H data_out_ack $end
$var reg 4 I nb_tour[3:0] $end
$var reg 2 J etat_mux[1:0] $end
$var reg 2 K etat_ksch[1:0] $end
$var reg 2 L etat_add[1:0] $end
$var reg 2 M etat_demux[1:0] $end
$var reg 2 N etat_sub[1:0] $end
$var reg 2 O etat_sh[1:0] $end
$var reg 2 P etat_mix[1:0] $end
$var reg 2 Q etat_conc_data[1:0] $end
$var reg 2 R etat_conc_key[1:0] $end
$var reg 2 S etat_deconc[1:0] $end
$var reg 128 T ksch_add_key[127:0] $end
$var reg 1 U ksch_add_key_ok $end
$var reg 1 V add_ksch_ack_key $end
$var reg 128 W mux_add_data[127:0] $end
$var reg 1 X mux_add_data_ok $end
$var reg 1 Y add_mux_ack_data $end
$var reg 128 Z add_demux_data[127:0] $end
$var reg 1 [ add_demux_data_ok $end
$var reg 1 \ demux_add_ack_data $end
$var reg 128 ] demux_sub_data[127:0] $end
$var reg 1 ^ demux_sub_data_ok $end
$var reg 1 _ sub_demux_ack_data $end
$var reg 128 ` sub_sh_data[127:0] $end
$var reg 1 a sub_sh_data_ok $end
$var reg 1 b sh_sub_ack_data $end
$var reg 128 c sh_mix_data[127:0] $end
$var reg 1 d sh_mix_data_ok $end
$var reg 1 e mix_sh_ack_data $end
$var reg 128 f mix_mux_data[127:0] $end
$var reg 1 g mix_mux_data_ok $end
$var reg 1 h mux_mix_ack_data $end
$var reg 128 i conc_ksch_data[127:0] $end
$var reg 1 j conc_ksch_data_ok $end
$var reg 1 k ksch_conc_ack_data $end
$var reg 128 l conc_mux_data[127:0] $end
$var reg 1 m conc_mux_data_ok $end
$var reg 1 n mux_conc_ack_data $end
$var reg 128 o demux_deconc_data[127:0] $end
$var reg 1 p demux_deconc_data_ok $end
$var reg 1 q deconc_demux_ack_data $end
$scope module u0 $end
$var reg 1 r horl $end
$var reg 1 s clr $end
$var reg 4 t sel[3:0] $end
$var reg 128 u data_in_a[127:0] $end
$var reg 1 v data_in_ok_a $end
$var reg 128 w data_in_b[127:0] $end
$var reg 1 x data_in_ok_b $end
$var reg 128 y data_out[127:0] $end
$var reg 1 z data_out_ok $end
$var reg 1 { ack_data_in_a $end
$var reg 1 | ack_data_in_b $end
$var reg 1 } ack_data_out $end
$var reg 2 !" etat[1:0] $end
$comment etat_courant is not handled $end
$comment etat_prochain is not handled $end
$var integer 32 "" sel_t $end
$upscope $end
$scope module u1 $end
$var reg 1 #" horl $end
$var reg 1 $" clr $end
$var reg 4 %" round_in[3:0] $end
$var reg 128 &" key_in[127:0] $end
$var reg 1 '" key_in_ok $end
$var reg 128 (" key_out[127:0] $end
$var reg 1 )" key_out_ok $end
$var reg 1 *" ack_key_in $end
$var reg 1 +" ack_key_out $end
$var reg 2 ," etat[1:0] $end
$comment etat_courant is not handled $end
$comment etat_prochain is not handled $end
$var integer 32 -" round_in_t $end
$upscope $end
$scope module u2 $end
$var reg 1 ." horl $end
$var reg 1 /" clr $end
$var reg 128 0" key_in[127:0] $end
$var reg 1 1" key_in_ok $end
$var reg 128 2" d_in[127:0] $end
$var reg 1 3" d_in_ok $end
$var reg 128 4" d_out[127:0] $end
$var reg 1 5" d_out_ok $end
$var reg 1 6" ack_d_in $end
$var reg 1 7" ack_key_in $end
$var reg 1 8" ack_d_out $end
$var reg 2 9" etat[1:0] $end
$comment etat_courant is not handled $end
$comment etat_prochain is not handled $end
$upscope $end
$scope module u3 $end
$var reg 1 :" horl $end
$var reg 1 ;" clr $end
$var reg 4 <" sel[3:0] $end
$var reg 128 =" data_in[127:0] $end
$var reg 1 >" data_in_ok $end
$var reg 128 ?" data_out_a[127:0] $end
$var reg 1 @" data_out_ok_a $end
$var reg 128 A" data_out_b[127:0] $end
$var reg 1 B" data_out_ok_b $end
$var reg 1 C" ack_data_in $end
$var reg 1 D" ack_data_out_a $end
$var reg 1 E" ack_data_out_b $end
$var reg 2 F" etat[1:0] $end
$comment etat_courant is not handled $end
$comment etat_prochain is not handled $end
$var integer 32 G" sel_t $end
$upscope $end
$scope module u4 $end
$var reg 1 H" horl $end
$var reg 1 I" clr $end
$var reg 128 J" v_in[127:0] $end
$var reg 1 K" v_in_ok $end
$var reg 128 L" v_out[127:0] $end
$var reg 1 M" v_out_ok $end
$var reg 1 N" ack_v_in $end
$var reg 1 O" ack_v_out $end
$var reg 2 P" etat[1:0] $end
$comment etat_courant is not handled $end
$comment etat_prochain is not handled $end
$upscope $end
$scope module u5 $end
$var reg 1 Q" horl $end
$var reg 1 R" clr $end
$var reg 128 S" din[127:0] $end
$var reg 1 T" din_ok $end
$var reg 128 U" dout[127:0] $end
$var reg 1 V" dout_ok $end
$var reg 1 W" ack_din $end
$var reg 1 X" ack_dout $end
$var reg 2 Y" etat[1:0] $end
$comment etat_courant is not handled $end
$comment etat_prochain is not handled $end
$upscope $end
$scope module u6 $end
$var reg 1 Z" horl $end
$var reg 1 [" clr $end
$var reg 4 \" round_in[3:0] $end
$var reg 128 ]" d_in[127:0] $end
$var reg 1 ^" d_in_ok $end
$var reg 128 _" d_out[127:0] $end
$var reg 1 `" d_out_ok $end
$var reg 1 a" ack_d_in $end
$var reg 1 b" ack_d_out $end
$var reg 2 c" etat[1:0] $end
$comment etat_courant is not handled $end
$comment etat_prochain is not handled $end
$var integer 32 d" round_in_t $end
$upscope $end
$scope module u7 $end
$var reg 1 e" clr $end
$var reg 1 f" tour_inc_in $end
$var reg 4 g" tour_out[3:0] $end
$var integer 32 h" tour_out_t $end
$upscope $end
$scope module u8 $end
$var reg 1 i" horl $end
$var reg 1 j" clr $end
$var reg 32 k" data_in_4_4[31:0] $end
$var reg 32 l" data_in_3_4[31:0] $end
$var reg 32 m" data_in_2_4[31:0] $end
$var reg 32 n" data_in_1_4[31:0] $end
$var reg 1 o" data_in_ok $end
$var reg 1 p" ack_data_in $end
$var reg 128 q" data_out[127:0] $end
$var reg 1 r" data_out_ok $end
$var reg 1 s" ack_data_out $end
$var reg 2 t" etat[1:0] $end
$comment etat_courant is not handled $end
$comment etat_prochain is not handled $end
$upscope $end
$scope module u9 $end
$var reg 1 u" horl $end
$var reg 1 v" clr $end
$var reg 32 w" data_in_4_4[31:0] $end
$var reg 32 x" data_in_3_4[31:0] $end
$var reg 32 y" data_in_2_4[31:0] $end
$var reg 32 z" data_in_1_4[31:0] $end
$var reg 1 {" data_in_ok $end
$var reg 1 |" ack_data_in $end
$var reg 128 }" data_out[127:0] $end
$var reg 1 !# data_out_ok $end
$var reg 1 "# ack_data_out $end
$var reg 2 ## etat[1:0] $end
$comment etat_courant is not handled $end
$comment etat_prochain is not handled $end
$upscope $end
$scope module u10 $end
$var reg 1 $# horl $end
$var reg 1 %# clr $end
$var reg 128 &# data_in[127:0] $end
$var reg 1 '# data_in_ok $end
$var reg 1 (# ack_data_in $end
$var reg 32 )# data_out_4_4[31:0] $end
$var reg 32 *# data_out_3_4[31:0] $end
$var reg 32 +# data_out_2_4[31:0] $end
$var reg 32 ,# data_out_1_4[31:0] $end
$var reg 1 -# data_out_ok $end
$var reg 1 .# ack_data_out $end
$var reg 2 /# etat[1:0] $end
$comment etat_courant is not handled $end
$comment etat_prochain is not handled $end
$upscope $end
$upscope $end
$enddefinitions $end
#0
0!
0"
b00000000000000000000000000000000 #
b00000000000000000000000000000000 $
b00000000000000000000000000000000 %
b00000000000000000000000000000000 &
0'
U(
b00000000000000000000000000000000 )
b00000000000000000000000000000000 *
b00000000000000000000000000000000 +
b00000000000000000000000000000000 ,
0-
U.
bUUUUUUUUUUUUUUUUUUUUUUUUUUUUUUUU /
bUUUUUUUUUUUUUUUUUUUUUUUUUUUUUUUU 0
bUUUUUUUUUUUUUUUUUUUUUUUUUUUUUUUU 1
bUUUUUUUUUUUUUUUUUUUUUUUUUUUUUUUU 2
U3
04
05
06
b00000000000000000000000000000000 7
b00000000000000000000000000000000 8
b00000000000000000000000000000000 9
b00000000000000000000000000000000 :
0;
U<
b00000000000000000000000000000000 =
b00000000000000000000000000000000 >
b00000000000000000000000000000000 ?
b00000000000000000000000000000000 @
0A
UB
bUUUUUUUUUUUUUUUUUUUUUUUUUUUUUUUU C
bUUUUUUUUUUUUUUUUUUUUUUUUUUUUUUUU D
bUUUUUUUUUUUUUUUUUUUUUUUUUUUUUUUU E
bUUUUUUUUUUUUUUUUUUUUUUUUUUUUUUUU F
UG
0H
b0000 I
bUU J
bUU K
bUU L
bUU M
bUU N
bUU O
bUU P
bUU Q
bUU R
bUU S
bUUUUUUUUUUUUUUUUUUUUUUUUUUUUUUUUUUUUUUUUUUUUUUUUUUUUUUUUUUUUUUUUUUUUUUUUUUUUUUUUUUUUUUUUUUUUUUUUUUUUUUUUUUUUUUUUUUUUUUUUUUUUUUUU T
UU
UV
bUUUUUUUUUUUUUUUUUUUUUUUUUUUUUUUUUUUUUUUUUUUUUUUUUUUUUUUUUUUUUUUUUUUUUUUUUUUUUUUUUUUUUUUUUUUUUUUUUUUUUUUUUUUUUUUUUUUUUUUUUUUUUUUU W
UX
UY
bUUUUUUUUUUUUUUUUUUUUUUUUUUUUUUUUUUUUUUUUUUUUUUUUUUUUUUUUUUUUUUUUUUUUUUUUUUUUUUUUUUUUUUUUUUUUUUUUUUUUUUUUUUUUUUUUUUUUUUUUUUUUUUUU Z
U[
U\
bUUUUUUUUUUUUUUUUUUUUUUUUUUUUUUUUUUUUUUUUUUUUUUUUUUUUUUUUUUUUUUUUUUUUUUUUUUUUUUUUUUUUUUUUUUUUUUUUUUUUUUUUUUUUUUUUUUUUUUUUUUUUUUUU ]
U^
U_
bUUUUUUUUUUUUUUUUUUUUUUUUUUUUUUUUUUUUUUUUUUUUUUUUUUUUUUUUUUUUUUUUUUUUUUUUUUUUUUUUUUUUUUUUUUUUUUUUUUUUUUUUUUUUUUUUUUUUUUUUUUUUUUUU `
Ua
Ub
bUUUUUUUUUUUUUUUUUUUUUUUUUUUUUUUUUUUUUUUUUUUUUUUUUUUUUUUUUUUUUUUUUUUUUUUUUUUUUUUUUUUUUUUUUUUUUUUUUUUUUUUUUUUUUUUUUUUUUUUUUUUUUUUU c
Ud
Ue
bUUUUUUUUUUUUUUUUUUUUUUUUUUUUUUUUUUUUUUUUUUUUUUUUUUUUUUUUUUUUUUUUUUUUUUUUUUUUUUUUUUUUUUUUUUUUUUUUUUUUUUUUUUUUUUUUUUUUUUUUUUUUUUUU f
Ug
Uh
bUUUUUUUUUUUUUUUUUUUUUUUUUUUUUUUUUUUUUUUUUUUUUUUUUUUUUUUUUUUUUUUUUUUUUUUUUUUUUUUUUUUUUUUUUUUUUUUUUUUUUUUUUUUUUUUUUUUUUUUUUUUUUUUU i
Uj
Uk
bUUUUUUUUUUUUUUUUUUUUUUUUUUUUUUUUUUUUUUUUUUUUUUUUUUUUUUUUUUUUUUUUUUUUUUUUUUUUUUUUUUUUUUUUUUUUUUUUUUUUUUUUUUUUUUUUUUUUUUUUUUUUUUUU l
Um
Un
bUUUUUUUUUUUUUUUUUUUUUUUUUUUUUUUUUUUUUUUUUUUUUUUUUUUUUUUUUUUUUUUUUUUUUUUUUUUUUUUUUUUUUUUUUUUUUUUUUUUUUUUUUUUUUUUUUUUUUUUUUUUUUUUU o
Up
Uq
0r
0s
b0000 t
bUUUUUUUUUUUUUUUUUUUUUUUUUUUUUUUUUUUUUUUUUUUUUUUUUUUUUUUUUUUUUUUUUUUUUUUUUUUUUUUUUUUUUUUUUUUUUUUUUUUUUUUUUUUUUUUUUUUUUUUUUUUUUUUU u
Uv
bUUUUUUUUUUUUUUUUUUUUUUUUUUUUUUUUUUUUUUUUUUUUUUUUUUUUUUUUUUUUUUUUUUUUUUUUUUUUUUUUUUUUUUUUUUUUUUUUUUUUUUUUUUUUUUUUUUUUUUUUUUUUUUUU w
Ux
bUUUUUUUUUUUUUUUUUUUUUUUUUUUUUUUUUUUUUUUUUUUUUUUUUUUUUUUUUUUUUUUUUUUUUUUUUUUUUUUUUUUUUUUUUUUUUUUUUUUUUUUUUUUUUUUUUUUUUUUUUUUUUUUU y
Uz
U{
U|
U}
bUU !"
b0 ""
0#"
0$"
b0000 %"
bUUUUUUUUUUUUUUUUUUUUUUUUUUUUUUUUUUUUUUUUUUUUUUUUUUUUUUUUUUUUUUUUUUUUUUUUUUUUUUUUUUUUUUUUUUUUUUUUUUUUUUUUUUUUUUUUUUUUUUUUUUUUUUUU &"
U'"
bUUUUUUUUUUUUUUUUUUUUUUUUUUUUUUUUUUUUUUUUUUUUUUUUUUUUUUUUUUUUUUUUUUUUUUUUUUUUUUUUUUUUUUUUUUUUUUUUUUUUUUUUUUUUUUUUUUUUUUUUUUUUUUUU ("
U)"
U*"
U+"
bUU ,"
b0 -"
0."
0/"
bUUUUUUUUUUUUUUUUUUUUUUUUUUUUUUUUUUUUUUUUUUUUUUUUUUUUUUUUUUUUUUUUUUUUUUUUUUUUUUUUUUUUUUUUUUUUUUUUUUUUUUUUUUUUUUUUUUUUUUUUUUUUUUUU 0"
U1"
bUUUUUUUUUUUUUUUUUUUUUUUUUUUUUUUUUUUUUUUUUUUUUUUUUUUUUUUUUUUUUUUUUUUUUUUUUUUUUUUUUUUUUUUUUUUUUUUUUUUUUUUUUUUUUUUUUUUUUUUUUUUUUUUU 2"
U3"
bUUUUUUUUUUUUUUUUUUUUUUUUUUUUUUUUUUUUUUUUUUUUUUUUUUUUUUUUUUUUUUUUUUUUUUUUUUUUUUUUUUUUUUUUUUUUUUUUUUUUUUUUUUUUUUUUUUUUUUUUUUUUUUUU 4"
U5"
U6"
U7"
U8"
bUU 9"
0:"
0;"
b0000 <"
bUUUUUUUUUUUUUUUUUUUUUUUUUUUUUUUUUUUUUUUUUUUUUUUUUUUUUUUUUUUUUUUUUUUUUUUUUUUUUUUUUUUUUUUUUUUUUUUUUUUUUUUUUUUUUUUUUUUUUUUUUUUUUUUU ="
U>"
bUUUUUUUUUUUUUUUUUUUUUUUUUUUUUUUUUUUUUUUUUUUUUUUUUUUUUUUUUUUUUUUUUUUUUUUUUUUUUUUUUUUUUUUUUUUUUUUUUUUUUUUUUUUUUUUUUUUUUUUUUUUUUUUU ?"
U@"
bUUUUUUUUUUUUUUUUUUUUUUUUUUUUUUUUUUUUUUUUUUUUUUUUUUUUUUUUUUUUUUUUUUUUUUUUUUUUUUUUUUUUUUUUUUUUUUUUUUUUUUUUUUUUUUUUUUUUUUUUUUUUUUUU A"
UB"
UC"
UD"
UE"
bUU F"
b0 G"
0H"
0I"
bUUUUUUUUUUUUUUUUUUUUUUUUUUUUUUUUUUUUUUUUUUUUUUUUUUUUUUUUUUUUUUUUUUUUUUUUUUUUUUUUUUUUUUUUUUUUUUUUUUUUUUUUUUUUUUUUUUUUUUUUUUUUUUUU J"
UK"
bUUUUUUUUUUUUUUUUUUUUUUUUUUUUUUUUUUUUUUUUUUUUUUUUUUUUUUUUUUUUUUUUUUUUUUUUUUUUUUUUUUUUUUUUUUUUUUUUUUUUUUUUUUUUUUUUUUUUUUUUUUUUUUUU L"
UM"
UN"
UO"
bUU P"
0Q"
0R"
bUUUUUUUUUUUUUUUUUUUUUUUUUUUUUUUUUUUUUUUUUUUUUUUUUUUUUUUUUUUUUUUUUUUUUUUUUUUUUUUUUUUUUUUUUUUUUUUUUUUUUUUUUUUUUUUUUUUUUUUUUUUUUUUU S"
UT"
bUUUUUUUUUUUUUUUUUUUUUUUUUUUUUUUUUUUUUUUUUUUUUUUUUUUUUUUUUUUUUUUUUUUUUUUUUUUUUUUUUUUUUUUUUUUUUUUUUUUUUUUUUUUUUUUUUUUUUUUUUUUUUUUU U"
UV"
UW"
UX"
bUU Y"
0Z"
0["
b0000 \"
bUUUUUUUUUUUUUUUUUUUUUUUUUUUUUUUUUUUUUUUUUUUUUUUUUUUUUUUUUUUUUUUUUUUUUUUUUUUUUUUUUUUUUUUUUUUUUUUUUUUUUUUUUUUUUUUUUUUUUUUUUUUUUUUU ]"
U^"
bUUUUUUUUUUUUUUUUUUUUUUUUUUUUUUUUUUUUUUUUUUUUUUUUUUUUUUUUUUUUUUUUUUUUUUUUUUUUUUUUUUUUUUUUUUUUUUUUUUUUUUUUUUUUUUUUUUUUUUUUUUUUUUUU _"
U`"
Ua"
Ub"
bUU c"
b0 d"
0e"
Uf"
b0000 g"
b0 h"
0i"
0j"
b00000000000000000000000000000000 k"
b00000000000000000000000000000000 l"
b00000000000000000000000000000000 m"
b00000000000000000000000000000000 n"
0o"
Up"
bUUUUUUUUUUUUUUUUUUUUUUUUUUUUUUUUUUUUUUUUUUUUUUUUUUUUUUUUUUUUUUUUUUUUUUUUUUUUUUUUUUUUUUUUUUUUUUUUUUUUUUUUUUUUUUUUUUUUUUUUUUUUUUUU q"
Ur"
Us"
bUU t"
0u"
0v"
b00000000000000000000000000000000 w"
b00000000000000000000000000000000 x"
b00000000000000000000000000000000 y"
b00000000000000000000000000000000 z"
0{"
U|"
bUUUUUUUUUUUUUUUUUUUUUUUUUUUUUUUUUUUUUUUUUUUUUUUUUUUUUUUUUUUUUUUUUUUUUUUUUUUUUUUUUUUUUUUUUUUUUUUUUUUUUUUUUUUUUUUUUUUUUUUUUUUUUUUU }"
U!#
U"#
bUU ##
0$#
0%#
bUUUUUUUUUUUUUUUUUUUUUUUUUUUUUUUUUUUUUUUUUUUUUUUUUUUUUUUUUUUUUUUUUUUUUUUUUUUUUUUUUUUUUUUUUUUUUUUUUUUUUUUUUUUUUUUUUUUUUUUUUUUUUUUU &#
U'#
U(#
bUUUUUUUUUUUUUUUUUUUUUUUUUUUUUUUU )#
bUUUUUUUUUUUUUUUUUUUUUUUUUUUUUUUU *#
bUUUUUUUUUUUUUUUUUUUUUUUUUUUUUUUU +#
bUUUUUUUUUUUUUUUUUUUUUUUUUUUUUUUU ,#
U-#
0.#
bUU /#
#10000000
1!
b00000000000000000000000000000000 /
b00000000000000000000000000000000 0
b00000000000000000000000000000000 1
b00000000000000000000000000000000 2
03
15
b00000000000000000000000000000000 C
b00000000000000000000000000000000 D
b00000000000000000000000000000000 E
b00000000000000000000000000000000 F
0G
b00000000000000000000000000000000000000000000000000000000000000000000000000000000000000000000000000000000000000000000000000000000 T
0U
b00000000000000000000000000000000000000000000000000000000000000000000000000000000000000000000000000000000000000000000000000000000 W
0X
b00000000000000000000000000000000000000000000000000000000000000000000000000000000000000000000000000000000000000000000000000000000 Z
0[
b00000000000000000000000000000000000000000000000000000000000000000000000000000000000000000000000000000000000000000000000000000000 ]
0^
b00000000000000000000000000000000000000000000000000000000000000000000000000000000000000000000000000000000000000000000000000000000 `
0a
b00000000000000000000000000000000000000000000000000000000000000000000000000000000000000000000000000000000000000000000000000000000 c
0d
b00000000000000000000000000000000000000000000000000000000000000000000000000000000000000000000000000000000000000000000000000000000 f
0g
b00000000000000000000000000000000000000000000000000000000000000000000000000000000000000000000000000000000000000000000000000000000 i
0j
b00000000000000000000000000000000000000000000000000000000000000000000000000000000000000000000000000000000000000000000000000000000 l
0m
b00000000000000000000000000000000000000000000000000000000000000000000000000000000000000000000000000000000000000000000000000000000 o
0p
1r
b00000000000000000000000000000000000000000000000000000000000000000000000000000000000000000000000000000000000000000000000000000000 u
0v
b00000000000000000000000000000000000000000000000000000000000000000000000000000000000000000000000000000000000000000000000000000000 w
0x
b00000000000000000000000000000000000000000000000000000000000000000000000000000000000000000000000000000000000000000000000000000000 y
0z
1#"
b00000000000000000000000000000000000000000000000000000000000000000000000000000000000000000000000000000000000000000000000000000000 &"
0'"
b00000000000000000000000000000000000000000000000000000000000000000000000000000000000000000000000000000000000000000000000000000000 ("
0)"
1."
b00000000000000000000000000000000000000000000000000000000000000000000000000000000000000000000000000000000000000000000000000000000 0"
01"
b00000000000000000000000000000000000000000000000000000000000000000000000000000000000000000000000000000000000000000000000000000000 2"
03"
b00000000000000000000000000000000000000000000000000000000000000000000000000000000000000000000000000000000000000000000000000000000 4"
05"
1:"
b00000000000000000000000000000000000000000000000000000000000000000000000000000000000000000000000000000000000000000000000000000000 ="
0>"
b00000000000000000000000000000000000000000000000000000000000000000000000000000000000000000000000000000000000000000000000000000000 ?"
0@"
b00000000000000000000000000000000000000000000000000000000000000000000000000000000000000000000000000000000000000000000000000000000 A"
0B"
1H"
b00000000000000000000000000000000000000000000000000000000000000000000000000000000000000000000000000000000000000000000000000000000 J"
0K"
b00000000000000000000000000000000000000000000000000000000000000000000000000000000000000000000000000000000000000000000000000000000 L"
0M"
1Q"
b00000000000000000000000000000000000000000000000000000000000000000000000000000000000000000000000000000000000000000000000000000000 S"
0T"
b00000000000000000000000000000000000000000000000000000000000000000000000000000000000000000000000000000000000000000000000000000000 U"
0V"
1Z"
b00000000000000000000000000000000000000000000000000000000000000000000000000000000000000000000000000000000000000000000000000000000 ]"
0^"
b00000000000000000000000000000000000000000000000000000000000000000000000000000000000000000000000000000000000000000000000000000000 _"
0`"
0f"
1i"
b00000000000000000000000000000000000000000000000000000000000000000000000000000000000000000000000000000000000000000000000000000000 q"
0r"
1u"
b00000000000000000000000000000000000000000000000000000000000000000000000000000000000000000000000000000000000000000000000000000000 }"
0!#
1$#
b00000000000000000000000000000000000000000000000000000000000000000000000000000000000000000000000000000000000000000000000000000000 &#
0'#
b00000000000000000000000000000000 )#
b00000000000000000000000000000000 *#
b00000000000000000000000000000000 +#
b00000000000000000000000000000000 ,#
0-#
#20000000
0!
05
0r
0#"
0."
0:"
0H"
0Q"
0Z"
0i"
0u"
0$#
#25000000
b00111100010011111100111100001001 #
b10001000000101011111011110101011 $
b10100110110100101010111000101000 %
b00010110000101010111111000101011 &
1'
b00111100010011111100111100001001 7
b10001000000101011111011110101011 8
b10100110110100101010111000101000 9
b00010110000101010111111000101011 :
1;
b00 R
b00111100010011111100111100001001 w"
b10001000000101011111011110101011 x"
b10100110110100101010111000101000 y"
b00010110000101010111111000101011 z"
1{"
b00 ##
#30000000
1!
1(
15
1<
b00 K
b01 R
b00111100010011111100111100001001100010000001010111110111101010111010011011010010101011100010100000010110000101010111111000101011 i
1j
1r
1#"
b00111100010011111100111100001001100010000001010111110111101010111010011011010010101011100010100000010110000101010111111000101011 &"
1'"
b00 ,"
1."
1:"
1H"
1Q"
1Z"
1i"
1u"
1|"
b00111100010011111100111100001001100010000001010111110111101010111010011011010010101011100010100000010110000101010111111000101011 }"
1!#
b01 ##
1$#
#33000000
b00110100000001110011011111100000 )
b10100010100110000011000100110001 *
b10001101001100000101101010001000 +
b10101000111101100100001100110010 ,
1-
b00110100000001110011011111100000 =
b10100010100110000011000100110001 >
b10001101001100000101101010001000 ?
b10101000111101100100001100110010 @
1A
b00 Q
b00110100000001110011011111100000 k"
b10100010100110000011000100110001 l"
b10001101001100000101101010001000 m"
b10101000111101100100001100110010 n"
1o"
b00 t"
#40000000
0!
05
0r
0#"
0."
0:"
0H"
0Q"
0Z"
0i"
0u"
0$#
#50000000
1!
0(
1.
15
0<
1B
b00 J
b01 K
b01 Q
b10 R
b00111100010011111100111100001001100010000001010111110111101010111010011011010010101011100010100000010110000101010111111000101011 T
1U
1k
b00110100000001110011011111100000101000101001100000110001001100011000110100110000010110101000100010101000111101100100001100110010 l
1m
1r
b00110100000001110011011111100000101000101001100000110001001100011000110100110000010110101000100010101000111101100100001100110010 u
1v
b00 !"
1#"
b00111100010011111100111100001001100010000001010111110111101010111010011011010010101011100010100000010110000101010111111000101011 ("
1)"
1*"
b01 ,"
1."
b00111100010011111100111100001001100010000001010111110111101010111010011011010010101011100010100000010110000101010111111000101011 0"
11"
1:"
1H"
1Q"
1Z"
1i"
1p"
b00110100000001110011011111100000101000101001100000110001001100011000110100110000010110101000100010101000111101100100001100110010 q"
1r"
b01 t"
1u"
0|"
1"#
b10 ##
1$#
#52000000
0'
0;
0{"
#60000000
0!
05
0r
0#"
0."
0:"
0H"
0Q"
0Z"
0i"
0u"
0$#
#68000000
0-
0A
0o"
#70000000
1!
0.
15
0B
b01 J
b00 L
b10 Q
b00110100000001110011011111100000101000101001100000110001001100011000110100110000010110101000100010101000111101100100001100110010 W
1X
b00000000000000000000000000000000000000000000000000000000000000000000000000000000000000000000000000000000000000000000000000000000 i
0j
0k
1n
1r
b00110100000001110011011111100000101000101001100000110001001100011000110100110000010110101000100010101000111101100100001100110010 y
1z
1{
b01 !"
1#"
b00000000000000000000000000000000000000000000000000000000000000000000000000000000000000000000000000000000000000000000000000000000 &"
0'"
0*"
1."
b00110100000001110011011111100000101000101001100000110001001100011000110100110000010110101000100010101000111101100100001100110010 2"
13"
b00 9"
1:"
1H"
1Q"
1Z"
1i"
0p"
1s"
b10 t"
1u"
b00000000000000000000000000000000000000000000000000000000000000000000000000000000000000000000000000000000000000000000000000000000 }"
0!#
0"#
1$#
#80000000
0!
05
0r
0#"
0."
0:"
0H"
0Q"
0Z"
0i"
0u"
0$#
#90000000
1!
15
b0001 I
b10 J
b10 K
b01 L
b00 M
1V
1Y
b00001000010010001111100011101001001010101000110111000110100110100010101111100010111101001010000010111110111000110011110100011001 Z
1[
0h
b00000000000000000000000000000000000000000000000000000000000000000000000000000000000000000000000000000000000000000000000000000000 l
0m
0n
1r
b0001 t
b00000000000000000000000000000000000000000000000000000000000000000000000000000000000000000000000000000000000000000000000000000000 u
0v
0{
0|
1}
b10 !"
b1 ""
1#"
b0001 %"
1+"
b10 ,"
b1 -"
1."
b00001000010010001111100011101001001010101000110111000110100110100010101111100010111101001010000010111110111000110011110100011001 4"
15"
16"
17"
b01 9"
1:"
b0001 <"
b00001000010010001111100011101001001010101000110111000110100110100010101111100010111101001010000010111110111000110011110100011001 ="
1>"
b00 F"
b1 G"
1H"
1Q"
1Z"
b0001 \"
0b"
b1 d"
1f"
b0001 g"
b1 h"
1i"
b00000000000000000000000000000000000000000000000000000000000000000000000000000000000000000000000000000000000000000000000000000000 q"
0r"
0s"
1u"
1$#
#100000000
0!
05
0r
0#"
0."
0:"
0H"
0Q"
0Z"
0i"
0u"
0$#
#110000000
1!
15
b00 K
b10 L
b01 M
b00 N
b00000000000000000000000000000000000000000000000000000000000000000000000000000000000000000000000000000000000000000000000000000000 T
0U
0V
b00000000000000000000000000000000000000000000000000000000000000000000000000000000000000000000000000000000000000000000000000000000 W
0X
0Y
1\
b00001000010010001111100011101001001010101000110111000110100110100010101111100010111101001010000010111110111000110011110100011001 ]
1^
1r
b00000000000000000000000000000000000000000000000000000000000000000000000000000000000000000000000000000000000000000000000000000000 y
0z
0}
1#"
b00000000000000000000000000000000000000000000000000000000000000000000000000000000000000000000000000000000000000000000000000000000 ("
0)"
0+"
b00 ,"
1."
b00000000000000000000000000000000000000000000000000000000000000000000000000000000000000000000000000000000000000000000000000000000 0"
01"
b00000000000000000000000000000000000000000000000000000000000000000000000000000000000000000000000000000000000000000000000000000000 2"
03"
06"
07"
18"
b10 9"
1:"
b00001000010010001111100011101001001010101000110111000110100110100010101111100010111101001010000010111110111000110011110100011001 A"
1B"
1C"
b01 F"
1H"
b00001000010010001111100011101001001010101000110111000110100110100010101111100010111101001010000010111110111000110011110100011001 J"
1K"
b00 P"
1Q"
1Z"
1i"
1u"
1$#
#120000000
0!
05
0r
0#"
0."
0:"
0H"
0Q"
0Z"
0i"
0u"
0$#
