algo_tb.vcd
$date
  Fri Feb 27 19:58:21 2015
$end
$version
  GHDL v0
$end
$timescale
  1 fs
$end
$var reg 1 ! horl $end
$var reg 1 " clr $end
$var reg 32 # key_in_4_4[31:0] $end
$var reg 32 $ key_in_3_4[31:0] $end
$var reg 32 % key_in_2_4[31:0] $end
$var reg 32 & key_in_1_4[31:0] $end
$var reg 1 ' key_in_ok $end
$var reg 1 ( key_in_ack $end
$var reg 32 ) data_in_4_4[31:0] $end
$var reg 32 * data_in_3_4[31:0] $end
$var reg 32 + data_in_2_4[31:0] $end
$var reg 32 , data_in_1_4[31:0] $end
$var reg 1 - data_in_ok $end
$var reg 1 . data_in_ack $end
$var reg 32 / data_out_4_4[31:0] $end
$var reg 32 0 data_out_3_4[31:0] $end
$var reg 32 1 data_out_2_4[31:0] $end
$var reg 32 2 data_out_1_4[31:0] $end
$var reg 1 3 data_out_ok $end
$var reg 1 4 data_out_ack $end
$scope module u0 $end
$var reg 1 5 horl $end
$var reg 1 6 clr $end
$var reg 32 7 key_in_4_4[31:0] $end
$var reg 32 8 key_in_3_4[31:0] $end
$var reg 32 9 key_in_2_4[31:0] $end
$var reg 32 : key_in_1_4[31:0] $end
$var reg 1 ; key_in_ok $end
$var reg 1 < key_in_ack $end
$var reg 32 = data_in_4_4[31:0] $end
$var reg 32 > data_in_3_4[31:0] $end
$var reg 32 ? data_in_2_4[31:0] $end
$var reg 32 @ data_in_1_4[31:0] $end
$var reg 1 A data_in_ok $end
$var reg 1 B data_in_ack $end
$var reg 32 C data_out_4_4[31:0] $end
$var reg 32 D data_out_3_4[31:0] $end
$var reg 32 E data_out_2_4[31:0] $end
$var reg 32 F data_out_1_4[31:0] $end
$var reg 1 G data_out_ok $end
$var reg 1 H data_out_ack $end
$var reg 1 I horl_t $end
$var reg 1 J clr_t $end
$var reg 32 K key_in_4_4_t[31:0] $end
$var reg 32 L key_in_3_4_t[31:0] $end
$var reg 32 M key_in_2_4_t[31:0] $end
$var reg 32 N key_in_1_4_t[31:0] $end
$var reg 1 O key_in_ok_t $end
$var reg 1 P key_in_ack_t $end
$var reg 32 Q data_in_4_4_t[31:0] $end
$var reg 32 R data_in_3_4_t[31:0] $end
$var reg 32 S data_in_2_4_t[31:0] $end
$var reg 32 T data_in_1_4_t[31:0] $end
$var reg 1 U data_in_ok_t $end
$var reg 1 V data_in_ack_t $end
$var reg 32 W data_out_4_4_t[31:0] $end
$var reg 32 X data_out_3_4_t[31:0] $end
$var reg 32 Y data_out_2_4_t[31:0] $end
$var reg 32 Z data_out_1_4_t[31:0] $end
$var reg 1 [ data_out_ok_t $end
$var reg 1 \ data_out_ack_t $end
$var reg 4 ] nb_tour[3:0] $end
$var reg 2 ^ etat_mux[1:0] $end
$var reg 2 _ etat_ksch[1:0] $end
$var reg 2 ` etat_add[1:0] $end
$var reg 2 a etat_demux[1:0] $end
$var reg 2 b etat_sub[1:0] $end
$var reg 2 c etat_sh[1:0] $end
$var reg 2 d etat_mix[1:0] $end
$var reg 2 e etat_ordo_a[1:0] $end
$var reg 2 f etat_ordo_b[1:0] $end
$var reg 128 g ksch_add_key[127:0] $end
$var reg 1 h ksch_add_key_ok $end
$var reg 1 i add_ksch_ack_key $end
$var reg 128 j mux_add_data[127:0] $end
$var reg 1 k mux_add_data_ok $end
$var reg 1 l add_mux_ack_data $end
$var reg 128 m add_demux_data[127:0] $end
$var reg 1 n add_demux_data_ok $end
$var reg 1 o demux_add_ack_data $end
$var reg 128 p demux_sub_data[127:0] $end
$var reg 1 q demux_sub_data_ok $end
$var reg 1 r sub_demux_ack_data $end
$var reg 128 s sub_sh_data[127:0] $end
$var reg 1 t sub_sh_data_ok $end
$var reg 1 u sh_sub_ack_data $end
$var reg 128 v sh_mix_data[127:0] $end
$var reg 1 w sh_mix_data_ok $end
$var reg 1 x mix_sh_ack_data $end
$var reg 128 y mix_mux_data[127:0] $end
$var reg 1 z mix_mux_data_ok $end
$var reg 1 { mux_mix_ack_data $end
$var reg 128 | ordo_mux_data[127:0] $end
$var reg 1 } ordo_mux_data_ok $end
$var reg 1 !" mux_ordo_ack_data $end
$var reg 128 "" ordo_ksch_data[127:0] $end
$var reg 1 #" ordo_ksch_data_ok $end
$var reg 1 $" ksch_ordo_ack_data $end
$var reg 128 %" demux_ordo_data[127:0] $end
$var reg 1 &" demux_ordo_data_ok $end
$var reg 1 '" ordo_demux_ack_data $end
$scope module u0 $end
$var reg 1 (" horl $end
$var reg 1 )" clr $end
$var reg 4 *" sel[3:0] $end
$var reg 128 +" data_in_a[127:0] $end
$var reg 1 ," data_in_ok_a $end
$var reg 128 -" data_in_b[127:0] $end
$var reg 1 ." data_in_ok_b $end
$var reg 128 /" data_out[127:0] $end
$var reg 1 0" data_out_ok $end
$var reg 1 1" ack_data_in_a $end
$var reg 1 2" ack_data_in_b $end
$var reg 1 3" ack_data_out $end
$var reg 2 4" etat[1:0] $end
$comment etat_courant is not handled $end
$comment etat_prochain is not handled $end
$var integer 32 5" sel_t $end
$upscope $end
$scope module u1 $end
$var reg 1 6" horl $end
$var reg 1 7" clr $end
$var reg 4 8" round_in[3:0] $end
$var reg 128 9" key_in[127:0] $end
$var reg 1 :" key_in_ok $end
$var reg 128 ;" key_out[127:0] $end
$var reg 1 <" key_out_ok $end
$var reg 1 =" ack_key_in $end
$var reg 1 >" ack_key_out $end
$var reg 2 ?" etat[1:0] $end
$comment etat_courant is not handled $end
$comment etat_prochain is not handled $end
$var integer 32 @" round_in_t $end
$var reg 1 A" key_in_ok_t $end
$upscope $end
$scope module u2 $end
$var reg 1 B" horl $end
$var reg 1 C" clr $end
$var reg 128 D" key_in[127:0] $end
$var reg 1 E" key_in_ok $end
$var reg 128 F" data_in[127:0] $end
$var reg 1 G" data_in_ok $end
$var reg 128 H" data_out[127:0] $end
$var reg 1 I" data_out_ok $end
$var reg 1 J" ack_data_in $end
$var reg 1 K" ack_key_in $end
$var reg 1 L" ack_data_out $end
$var reg 2 M" etat[1:0] $end
$comment etat_courant is not handled $end
$comment etat_prochain is not handled $end
$upscope $end
$scope module u3 $end
$var reg 1 N" horl $end
$var reg 1 O" clr $end
$var reg 4 P" sel[3:0] $end
$var reg 128 Q" data_in[127:0] $end
$var reg 1 R" data_in_ok $end
$var reg 128 S" data_out_a[127:0] $end
$var reg 1 T" data_out_ok_a $end
$var reg 128 U" data_out_b[127:0] $end
$var reg 1 V" data_out_ok_b $end
$var reg 1 W" ack_data_in $end
$var reg 1 X" ack_data_out_a $end
$var reg 1 Y" ack_data_out_b $end
$var reg 2 Z" etat[1:0] $end
$comment etat_courant is not handled $end
$comment etat_prochain is not handled $end
$var integer 32 [" sel_t $end
$upscope $end
$scope module u4 $end
$var reg 1 \" horl $end
$var reg 1 ]" clr $end
$var reg 128 ^" data_in[127:0] $end
$var reg 1 _" data_in_ok $end
$var reg 128 `" data_out[127:0] $end
$var reg 1 a" data_out_ok $end
$var reg 1 b" ack_data_in $end
$var reg 1 c" ack_data_out $end
$var reg 2 d" etat[1:0] $end
$comment etat_courant is not handled $end
$comment etat_prochain is not handled $end
$upscope $end
$scope module u5 $end
$var reg 1 e" horl $end
$var reg 1 f" clr $end
$var reg 128 g" data_in[127:0] $end
$var reg 1 h" data_in_ok $end
$var reg 128 i" data_out[127:0] $end
$var reg 1 j" data_out_ok $end
$var reg 1 k" ack_data_in $end
$var reg 1 l" ack_data_out $end
$var reg 2 m" etat[1:0] $end
$comment etat_courant is not handled $end
$comment etat_prochain is not handled $end
$upscope $end
$scope module u6 $end
$var reg 1 n" horl $end
$var reg 1 o" clr $end
$var reg 4 p" round_in[3:0] $end
$var reg 128 q" data_in[127:0] $end
$var reg 1 r" data_in_ok $end
$var reg 128 s" data_out[127:0] $end
$var reg 1 t" data_out_ok $end
$var reg 1 u" ack_data_in $end
$var reg 1 v" ack_data_out $end
$var reg 2 w" etat[1:0] $end
$comment etat_courant is not handled $end
$comment etat_prochain is not handled $end
$var integer 32 x" round_in_t $end
$upscope $end
$scope module u7 $end
$var reg 1 y" clr $end
$var reg 1 z" raz $end
$var reg 1 {" tour_inc_in $end
$var reg 4 |" tour_out[3:0] $end
$var integer 32 }" tour_out_t $end
$upscope $end
$scope module u8 $end
$var reg 1 !# horl $end
$var reg 1 "# clr $end
$var reg 32 ## key_in_4_4_a[31:0] $end
$var reg 32 $# key_in_3_4_a[31:0] $end
$var reg 32 %# key_in_2_4_a[31:0] $end
$var reg 32 &# key_in_1_4_a[31:0] $end
$var reg 1 '# key_in_ok_a $end
$var reg 32 (# data_in_4_4_a[31:0] $end
$var reg 32 )# data_in_3_4_a[31:0] $end
$var reg 32 *# data_in_2_4_a[31:0] $end
$var reg 32 +# data_in_1_4_a[31:0] $end
$var reg 1 ,# data_in_ok_a $end
$var reg 1 -# ack_data_out_a $end
$var reg 1 .# ack_key_in_a $end
$var reg 1 /# ack_data_in_a $end
$var reg 32 0# data_out_4_4_a[31:0] $end
$var reg 32 1# data_out_3_4_a[31:0] $end
$var reg 32 2# data_out_2_4_a[31:0] $end
$var reg 32 3# data_out_1_4_a[31:0] $end
$var reg 1 4# data_out_ok_a $end
$var reg 1 5# ack_data_out_b $end
$var reg 1 6# ack_key_out_b $end
$var reg 128 7# data_in_b[127:0] $end
$var reg 1 8# data_in_ok_b $end
$var reg 128 9# key_out_b[127:0] $end
$var reg 1 :# key_out_ok_b $end
$var reg 128 ;# data_out_b[127:0] $end
$var reg 1 <# data_out_ok_b $end
$var reg 1 =# ack_data_in_b $end
$var reg 2 ># etat_in[1:0] $end
$var reg 2 ?# etat_out[1:0] $end
$var reg 1 @# data_in_ok_a_t $end
$var reg 1 A# key_in_ok_a_t $end
$var reg 1 B# ack_data_out_a_t $end
$comment etat_courant_a is not handled $end
$comment etat_prochain_a is not handled $end
$comment etat_courant_b is not handled $end
$comment etat_prochain_b is not handled $end
$var integer 32 C# operation $end
$var integer 32 D# operation_data $end
$var integer 32 E# operation_key $end
$var reg 128 F# mem_key[127:0] $end
$upscope $end
$upscope $end
$enddefinitions $end
#0
0!
1"
b00000000000000000000000000000000 #
b00000000000000000000000000000000 $
b00000000000000000000000000000000 %
b00000000000000000000000000000000 &
0'
0(
b00000000000000000000000000000000 )
b00000000000000000000000000000000 *
b00000000000000000000000000000000 +
b00000000000000000000000000000000 ,
0-
0.
b00000000000000000000000000000000 /
b00000000000000000000000000000000 0
b00000000000000000000000000000000 1
b00000000000000000000000000000000 2
03
04
05
16
b00000000000000000000000000000000 7
b00000000000000000000000000000000 8
b00000000000000000000000000000000 9
b00000000000000000000000000000000 :
0;
0<
b00000000000000000000000000000000 =
b00000000000000000000000000000000 >
b00000000000000000000000000000000 ?
b00000000000000000000000000000000 @
0A
0B
b00000000000000000000000000000000 C
b00000000000000000000000000000000 D
b00000000000000000000000000000000 E
b00000000000000000000000000000000 F
0G
0H
0I
1J
b00000000000000000000000000000000 K
b00000000000000000000000000000000 L
b00000000000000000000000000000000 M
b00000000000000000000000000000000 N
0O
0P
b00000000000000000000000000000000 Q
b00000000000000000000000000000000 R
b00000000000000000000000000000000 S
b00000000000000000000000000000000 T
0U
0V
b00000000000000000000000000000000 W
b00000000000000000000000000000000 X
b00000000000000000000000000000000 Y
b00000000000000000000000000000000 Z
0[
0\
b0000 ]
b10 ^
b10 _
b10 `
b10 a
b10 b
b10 c
b10 d
b10 e
b10 f
b00000000000000000000000000000000000000000000000000000000000000000000000000000000000000000000000000000000000000000000000000000000 g
0h
0i
b00000000000000000000000000000000000000000000000000000000000000000000000000000000000000000000000000000000000000000000000000000000 j
0k
0l
b00000000000000000000000000000000000000000000000000000000000000000000000000000000000000000000000000000000000000000000000000000000 m
0n
0o
b00000000000000000000000000000000000000000000000000000000000000000000000000000000000000000000000000000000000000000000000000000000 p
0q
0r
b00000000000000000000000000000000000000000000000000000000000000000000000000000000000000000000000000000000000000000000000000000000 s
0t
0u
b00000000000000000000000000000000000000000000000000000000000000000000000000000000000000000000000000000000000000000000000000000000 v
0w
0x
b00000000000000000000000000000000000000000000000000000000000000000000000000000000000000000000000000000000000000000000000000000000 y
0z
0{
b00000000000000000000000000000000000000000000000000000000000000000000000000000000000000000000000000000000000000000000000000000000 |
0}
0!"
b00000000000000000000000000000000000000000000000000000000000000000000000000000000000000000000000000000000000000000000000000000000 ""
0#"
0$"
b00000000000000000000000000000000000000000000000000000000000000000000000000000000000000000000000000000000000000000000000000000000 %"
0&"
0'"
0("
1)"
b0000 *"
b00000000000000000000000000000000000000000000000000000000000000000000000000000000000000000000000000000000000000000000000000000000 +"
0,"
b00000000000000000000000000000000000000000000000000000000000000000000000000000000000000000000000000000000000000000000000000000000 -"
0."
b00000000000000000000000000000000000000000000000000000000000000000000000000000000000000000000000000000000000000000000000000000000 /"
00"
01"
02"
03"
b10 4"
b0 5"
06"
17"
b0000 8"
b00000000000000000000000000000000000000000000000000000000000000000000000000000000000000000000000000000000000000000000000000000000 9"
0:"
b00000000000000000000000000000000000000000000000000000000000000000000000000000000000000000000000000000000000000000000000000000000 ;"
0<"
0="
0>"
b10 ?"
b0 @"
0A"
0B"
1C"
b00000000000000000000000000000000000000000000000000000000000000000000000000000000000000000000000000000000000000000000000000000000 D"
0E"
b00000000000000000000000000000000000000000000000000000000000000000000000000000000000000000000000000000000000000000000000000000000 F"
0G"
b00000000000000000000000000000000000000000000000000000000000000000000000000000000000000000000000000000000000000000000000000000000 H"
0I"
0J"
0K"
0L"
b10 M"
0N"
1O"
b0000 P"
b00000000000000000000000000000000000000000000000000000000000000000000000000000000000000000000000000000000000000000000000000000000 Q"
0R"
b00000000000000000000000000000000000000000000000000000000000000000000000000000000000000000000000000000000000000000000000000000000 S"
0T"
b00000000000000000000000000000000000000000000000000000000000000000000000000000000000000000000000000000000000000000000000000000000 U"
0V"
0W"
0X"
0Y"
b10 Z"
b0 ["
0\"
1]"
b00000000000000000000000000000000000000000000000000000000000000000000000000000000000000000000000000000000000000000000000000000000 ^"
0_"
b00000000000000000000000000000000000000000000000000000000000000000000000000000000000000000000000000000000000000000000000000000000 `"
0a"
0b"
0c"
b10 d"
0e"
1f"
b00000000000000000000000000000000000000000000000000000000000000000000000000000000000000000000000000000000000000000000000000000000 g"
0h"
b00000000000000000000000000000000000000000000000000000000000000000000000000000000000000000000000000000000000000000000000000000000 i"
0j"
0k"
0l"
b10 m"
0n"
1o"
b0000 p"
b00000000000000000000000000000000000000000000000000000000000000000000000000000000000000000000000000000000000000000000000000000000 q"
0r"
b00000000000000000000000000000000000000000000000000000000000000000000000000000000000000000000000000000000000000000000000000000000 s"
0t"
0u"
0v"
b10 w"
b0 x"
1y"
0z"
0{"
b0000 |"
b0 }"
0!#
1"#
b00000000000000000000000000000000 ##
b00000000000000000000000000000000 $#
b00000000000000000000000000000000 %#
b00000000000000000000000000000000 &#
0'#
b00000000000000000000000000000000 (#
b00000000000000000000000000000000 )#
b00000000000000000000000000000000 *#
b00000000000000000000000000000000 +#
0,#
0-#
0.#
0/#
b00000000000000000000000000000000 0#
b00000000000000000000000000000000 1#
b00000000000000000000000000000000 2#
b00000000000000000000000000000000 3#
04#
05#
06#
b00000000000000000000000000000000000000000000000000000000000000000000000000000000000000000000000000000000000000000000000000000000 7#
08#
b00000000000000000000000000000000000000000000000000000000000000000000000000000000000000000000000000000000000000000000000000000000 9#
0:#
b00000000000000000000000000000000000000000000000000000000000000000000000000000000000000000000000000000000000000000000000000000000 ;#
0<#
0=#
b10 >#
b10 ?#
0@#
0A#
0B#
b0 C#
b0 D#
b0 E#
b00000000000000000000000000000000000000000000000000000000000000000000000000000000000000000000000000000000000000000000000000000000 F#
#10000000
1!
15
1I
1("
16"
1B"
1N"
1\"
1e"
1n"
1!#
#15000000
0"
06
0J
0)"
07"
0C"
0O"
0]"
0f"
0o"
0y"
0"#
#20000000
0!
05
0I
0("
06"
0B"
0N"
0\"
0e"
0n"
0!#
#25000000
b00001111000011100000110100001100 #
b00001011000010100000100100001000 $
b00000111000001100000010100000100 %
b00000011000000100000000100000000 &
b00001111000011100000110100001100 7
b00001011000010100000100100001000 8
b00000111000001100000010100000100 9
b00000011000000100000000100000000 :
b00001111000011100000110100001100 K
b00001011000010100000100100001000 L
b00000111000001100000010100000100 M
b00000011000000100000000100000000 N
b00001111000011100000110100001100 ##
b00001011000010100000100100001000 $#
b00000111000001100000010100000100 %#
b00000011000000100000000100000000 &#
#30000000
1!
15
1I
1("
16"
1B"
1N"
1\"
1e"
1n"
1!#
#33000000
b11111111111011101101110111001100 )
b10111011101010101001100110001000 *
b01110111011001100101010101000100 +
b00110011001000100001000100000000 ,
b11111111111011101101110111001100 =
b10111011101010101001100110001000 >
b01110111011001100101010101000100 ?
b00110011001000100001000100000000 @
b11111111111011101101110111001100 Q
b10111011101010101001100110001000 R
b01110111011001100101010101000100 S
b00110011001000100001000100000000 T
b11111111111011101101110111001100 (#
b10111011101010101001100110001000 )#
b01110111011001100101010101000100 *#
b00110011001000100001000100000000 +#
#40000000
0!
05
0I
0("
06"
0B"
0N"
0\"
0e"
0n"
0!#
#50000000
1!
15
1I
1("
16"
1B"
1N"
1\"
1e"
1n"
1!#
#60000000
0!
05
0I
0("
06"
0B"
0N"
0\"
0e"
0n"
0!#
#70000000
1!
15
1I
1("
16"
1B"
1N"
1\"
1e"
1n"
1!#
#75000000
1'
1;
1O
1'#
1A#
b1 C#
b1 E#
#80000000
0!
05
0I
0("
06"
0B"
0N"
0\"
0e"
0n"
0!#
#90000000
1!
15
1I
1("
16"
1B"
1N"
1\"
1e"
1n"
1!#
#100000000
0!
1-
05
1A
0I
1U
b00 e
0("
06"
0B"
0N"
0\"
0e"
0n"
0!#
1,#
b00 >#
1@#
b10 C#
b1 D#
b00001111000011100000110100001100000010110000101000001001000010000000011100000110000001010000010000000011000000100000000100000000 F#
#110000000
1!
1(
1.
15
1<
1B
1I
1P
1V
b00 ^
b00 _
b01 e
b11111111111011101101110111001100101110111010101010011001100010000111011101100110010101010100010000110011001000100001000100000000 |
1}
b00001111000011100000110100001100000010110000101000001001000010000000011100000110000001010000010000000011000000100000000100000000 ""
1#"
1("
b11111111111011101101110111001100101110111010101010011001100010000111011101100110010101010100010000110011001000100001000100000000 +"
1,"
b00 4"
16"
b00001111000011100000110100001100000010110000101000001001000010000000011100000110000001010000010000000011000000100000000100000000 9"
1:"
b00 ?"
1A"
1B"
1N"
1\"
1e"
1n"
1!#
1.#
1/#
b00001111000011100000110100001100000010110000101000001001000010000000011100000110000001010000010000000011000000100000000100000000 9#
1:#
b11111111111011101101110111001100101110111010101010011001100010000111011101100110010101010100010000110011001000100001000100000000 ;#
1<#
b01 >#
0@#
0A#
b0 C#
b0 D#
b0 E#
#120000000
0!
05
0I
0("
06"
0B"
0N"
0\"
0e"
0n"
0!#
#130000000
1!
0(
0.
15
0<
0B
1I
0P
0V
b01 ^
b01 _
b00 `
b10 e
b00001111000011100000110100001100000010110000101000001001000010000000011100000110000001010000010000000011000000100000000100000000 g
1h
b11111111111011101101110111001100101110111010101010011001100010000111011101100110010101010100010000110011001000100001000100000000 j
1k
1!"
1$"
1("
b11111111111011101101110111001100101110111010101010011001100010000111011101100110010101010100010000110011001000100001000100000000 /"
10"
11"
b01 4"
16"
b00001111000011100000110100001100000010110000101000001001000010000000011100000110000001010000010000000011000000100000000100000000 ;"
1<"
1="
b01 ?"
1B"
b00001111000011100000110100001100000010110000101000001001000010000000011100000110000001010000010000000011000000100000000100000000 D"
1E"
b11111111111011101101110111001100101110111010101010011001100010000111011101100110010101010100010000110011001000100001000100000000 F"
1G"
b00 M"
1N"
1\"
1e"
1n"
1!#
0.#
0/#
15#
16#
b10 >#
#140000000
0!
05
0I
0("
06"
0B"
0N"
0\"
0e"
0n"
0!#
#150000000
1!
15
1I
b0001 ]
b10 ^
b10 _
b01 `
b00 a
1i
1l
b11110000111000001101000011000000101100001010000010010000100000000111000001100000010100000100000000110000001000000001000000000000 m
1n
b00000000000000000000000000000000000000000000000000000000000000000000000000000000000000000000000000000000000000000000000000000000 |
0}
0!"
b00000000000000000000000000000000000000000000000000000000000000000000000000000000000000000000000000000000000000000000000000000000 ""
0#"
0$"
1("
b0001 *"
b00000000000000000000000000000000000000000000000000000000000000000000000000000000000000000000000000000000000000000000000000000000 +"
0,"
01"
13"
b10 4"
b1 5"
16"
b0001 8"
b00000000000000000000000000000000000000000000000000000000000000000000000000000000000000000000000000000000000000000000000000000000 9"
0:"
0="
1>"
b10 ?"
b1 @"
1B"
b11110000111000001101000011000000101100001010000010010000100000000111000001100000010100000100000000110000001000000001000000000000 H"
1I"
1J"
1K"
b01 M"
1N"
b0001 P"
b11110000111000001101000011000000101100001010000010010000100000000111000001100000010100000100000000110000001000000001000000000000 Q"
1R"
b00 Z"
b1 ["
1\"
1e"
1n"
b0001 p"
b1 x"
1{"
b0001 |"
b1 }"
1!#
05#
06#
b00000000000000000000000000000000000000000000000000000000000000000000000000000000000000000000000000000000000000000000000000000000 9#
0:#
b00000000000000000000000000000000000000000000000000000000000000000000000000000000000000000000000000000000000000000000000000000000 ;#
0<#
#160000000
0!
05
0I
0("
06"
0B"
0N"
0\"
0e"
0n"
0!#
#170000000
1!
15
1I
b00 _
b10 `
b01 a
b00 b
b00000000000000000000000000000000000000000000000000000000000000000000000000000000000000000000000000000000000000000000000000000000 g
0h
0i
b00000000000000000000000000000000000000000000000000000000000000000000000000000000000000000000000000000000000000000000000000000000 j
0k
0l
1o
b11110000111000001101000011000000101100001010000010010000100000000111000001100000010100000100000000110000001000000001000000000000 p
1q
1("
b00000000000000000000000000000000000000000000000000000000000000000000000000000000000000000000000000000000000000000000000000000000 /"
00"
03"
16"
b00000000000000000000000000000000000000000000000000000000000000000000000000000000000000000000000000000000000000000000000000000000 ;"
0<"
0>"
b00 ?"
1B"
b00000000000000000000000000000000000000000000000000000000000000000000000000000000000000000000000000000000000000000000000000000000 D"
0E"
b00000000000000000000000000000000000000000000000000000000000000000000000000000000000000000000000000000000000000000000000000000000 F"
0G"
0J"
0K"
1L"
b10 M"
1N"
b11110000111000001101000011000000101100001010000010010000100000000111000001100000010100000100000000110000001000000001000000000000 U"
1V"
1W"
b01 Z"
1\"
b11110000111000001101000011000000101100001010000010010000100000000111000001100000010100000100000000110000001000000001000000000000 ^"
1_"
b00 d"
1e"
1n"
1!#
#180000000
0!
05
0I
0("
06"
0B"
0N"
0\"
0e"
0n"
0!#
#190000000
1!
15
1I
b01 _
b10 a
b01 b
b00 c
b11111110011101101010101111010110111100010111100010100110110110101111101001110010101011111101001011111101011101001010101011010110 g
1h
b00000000000000000000000000000000000000000000000000000000000000000000000000000000000000000000000000000000000000000000000000000000 m
0n
0o
1r
b10001100111000010111000010111010111001111110000001100000110011010101000111010000010100110000100100000100101101111100101001100011 s
1t
1("
16"
b11111110011101101010101111010110111100010111100010100110110110101111101001110010101011111101001011111101011101001010101011010110 ;"
1<"
b01 ?"
1B"
b11111110011101101010101111010110111100010111100010100110110110101111101001110010101011111101001011111101011101001010101011010110 D"
1E"
b00000000000000000000000000000000000000000000000000000000000000000000000000000000000000000000000000000000000000000000000000000000 H"
0I"
0L"
1N"
b00000000000000000000000000000000000000000000000000000000000000000000000000000000000000000000000000000000000000000000000000000000 Q"
0R"
0W"
1Y"
b10 Z"
1\"
b10001100111000010111000010111010111001111110000001100000110011010101000111010000010100110000100100000100101101111100101001100011 `"
1a"
1b"
b01 d"
1e"
b10001100111000010111000010111010111001111110000001100000110011010101000111010000010100110000100100000100101101111100101001100011 g"
1h"
b00 m"
1n"
0{"
1!#
#200000000
0!
05
0I
0("
06"
0B"
0N"
0\"
0e"
0n"
0!#
#210000000
1!
15
1I
b10 b
b01 c
b00 d
b00000000000000000000000000000000000000000000000000000000000000000000000000000000000000000000000000000000000000000000000000000000 p
0q
0r
1u
b11100111110100001100101010111010010100011011011101110000110011010000010011100001011000000000100110001100111000000101001101100011 v
1w
1("
16"
1B"
1N"
b00000000000000000000000000000000000000000000000000000000000000000000000000000000000000000000000000000000000000000000000000000000 U"
0V"
0Y"
1\"
b00000000000000000000000000000000000000000000000000000000000000000000000000000000000000000000000000000000000000000000000000000000 ^"
0_"
0b"
1c"
b10 d"
1e"
b11100111110100001100101010111010010100011011011101110000110011010000010011100001011000000000100110001100111000000101001101100011 i"
1j"
1k"
b01 m"
1n"
b11100111110100001100101010111010010100011011011101110000110011010000010011100001011000000000100110001100111000000101001101100011 q"
1r"
b00 w"
1!#
#220000000
0!
05
0I
0("
06"
0B"
0N"
0\"
0e"
0n"
0!#
#230000000
1!
15
1I
b11 ^
b10 c
b01 d
b00000000000000000000000000000000000000000000000000000000000000000000000000000000000000000000000000000000000000000000000000000000 s
0t
0u
1x
b00011010111110011011100100011101001010010011101110111110111101111001001010111100111101010101011100010101011001000111001001011111 y
1z
1("
b00011010111110011011100100011101001010010011101110111110111101111001001010111100111101010101011100010101011001000111001001011111 -"
1."
b11 4"
16"
1B"
1N"
1\"
b00000000000000000000000000000000000000000000000000000000000000000000000000000000000000000000000000000000000000000000000000000000 `"
0a"
0c"
1e"
b00000000000000000000000000000000000000000000000000000000000000000000000000000000000000000000000000000000000000000000000000000000 g"
0h"
0k"
1l"
b10 m"
1n"
b00011010111110011011100100011101001010010011101110111110111101111001001010111100111101010101011100010101011001000111001001011111 s"
1t"
1u"
b01 w"
1!#
#240000000
0!
05
0I
0("
06"
0B"
0N"
0\"
0e"
0n"
0!#
#250000000
1!
15
1I
b01 ^
b00 `
b10 d
b00011010111110011011100100011101001010010011101110111110111101111001001010111100111101010101011100010101011001000111001001011111 j
1k
b00000000000000000000000000000000000000000000000000000000000000000000000000000000000000000000000000000000000000000000000000000000 v
0w
0x
1{
1("
b00011010111110011011100100011101001010010011101110111110111101111001001010111100111101010101011100010101011001000111001001011111 /"
10"
12"
b01 4"
16"
1B"
b00011010111110011011100100011101001010010011101110111110111101111001001010111100111101010101011100010101011001000111001001011111 F"
1G"
b00 M"
1N"
1\"
1e"
b00000000000000000000000000000000000000000000000000000000000000000000000000000000000000000000000000000000000000000000000000000000 i"
0j"
0l"
1n"
b00000000000000000000000000000000000000000000000000000000000000000000000000000000000000000000000000000000000000000000000000000000 q"
0r"
0u"
1v"
b10 w"
1!#
#260000000
0!
05
0I
0("
06"
0B"
0N"
0\"
0e"
0n"
0!#
#270000000
1!
15
1I
b0010 ]
b10 ^
b10 _
b01 `
b00 a
1i
1l
b11100100100011110001001011001011110110000100001100011000001011010110100011001110010110101000010111101000000100001101100010001001 m
1n
b00000000000000000000000000000000000000000000000000000000000000000000000000000000000000000000000000000000000000000000000000000000 y
0z
0{
1("
b0010 *"
b00000000000000000000000000000000000000000000000000000000000000000000000000000000000000000000000000000000000000000000000000000000 -"
0."
02"
13"
b10 4"
b10 5"
16"
b0010 8"
1>"
b10 ?"
b10 @"
1B"
b11100100100011110001001011001011110110000100001100011000001011010110100011001110010110101000010111101000000100001101100010001001 H"
1I"
1J"
1K"
b01 M"
1N"
b0010 P"
b11100100100011110001001011001011110110000100001100011000001011010110100011001110010110101000010111101000000100001101100010001001 Q"
1R"
b00 Z"
b10 ["
1\"
1e"
1n"
b0010 p"
b00000000000000000000000000000000000000000000000000000000000000000000000000000000000000000000000000000000000000000000000000000000 s"
0t"
0v"
b10 x"
1{"
b0010 |"
b10 }"
1!#
#280000000
0!
05
0I
0("
06"
0B"
0N"
0\"
0e"
0n"
0!#
#290000000
1!
15
1I
b00 _
b10 `
b01 a
b00 b
b00000000000000000000000000000000000000000000000000000000000000000000000000000000000000000000000000000000000000000000000000000000 g
0h
0i
b00000000000000000000000000000000000000000000000000000000000000000000000000000000000000000000000000000000000000000000000000000000 j
0k
0l
1o
b11100100100011110001001011001011110110000100001100011000001011010110100011001110010110101000010111101000000100001101100010001001 p
1q
1("
b00000000000000000000000000000000000000000000000000000000000000000000000000000000000000000000000000000000000000000000000000000000 /"
00"
03"
16"
b00000000000000000000000000000000000000000000000000000000000000000000000000000000000000000000000000000000000000000000000000000000 ;"
0<"
0>"
b00 ?"
1B"
b00000000000000000000000000000000000000000000000000000000000000000000000000000000000000000000000000000000000000000000000000000000 D"
0E"
b00000000000000000000000000000000000000000000000000000000000000000000000000000000000000000000000000000000000000000000000000000000 F"
0G"
0J"
0K"
1L"
b10 M"
1N"
b11100100100011110001001011001011110110000100001100011000001011010110100011001110010110101000010111101000000100001101100010001001 U"
1V"
1W"
b01 Z"
1\"
b11100100100011110001001011001011110110000100001100011000001011010110100011001110010110101000010111101000000100001101100010001001 ^"
1_"
b00 d"
1e"
1n"
1!#
#300000000
0!
05
0I
0("
06"
0B"
0N"
0\"
0e"
0n"
0!#
