algo_tb.vcd
$date
  Sun Mar 08 10:06:06 2015
$end
$version
  GHDL v0
$end
$timescale
  1 fs
$end
$var reg 1 ! horl $end
$var reg 1 " clr $end
$var reg 32 # key_in_4_4[31:0] $end
$var reg 32 $ key_in_3_4[31:0] $end
$var reg 32 % key_in_2_4[31:0] $end
$var reg 32 & key_in_1_4[31:0] $end
$var reg 1 ' key_in_ok $end
$var reg 1 ( key_in_ack $end
$var reg 32 ) data_in_4_4[31:0] $end
$var reg 32 * data_in_3_4[31:0] $end
$var reg 32 + data_in_2_4[31:0] $end
$var reg 32 , data_in_1_4[31:0] $end
$var reg 1 - data_in_ok $end
$var reg 1 . data_in_ack $end
$var reg 32 / data_out_4_4[31:0] $end
$var reg 32 0 data_out_3_4[31:0] $end
$var reg 32 1 data_out_2_4[31:0] $end
$var reg 32 2 data_out_1_4[31:0] $end
$var reg 1 3 data_out_ok $end
$var reg 1 4 data_out_ack $end
$scope module u0 $end
$var reg 1 5 horl $end
$var reg 1 6 clr $end
$var reg 32 7 key_in_4_4[31:0] $end
$var reg 32 8 key_in_3_4[31:0] $end
$var reg 32 9 key_in_2_4[31:0] $end
$var reg 32 : key_in_1_4[31:0] $end
$var reg 1 ; key_in_ok $end
$var reg 1 < key_in_ack $end
$var reg 32 = data_in_4_4[31:0] $end
$var reg 32 > data_in_3_4[31:0] $end
$var reg 32 ? data_in_2_4[31:0] $end
$var reg 32 @ data_in_1_4[31:0] $end
$var reg 1 A data_in_ok $end
$var reg 1 B data_in_ack $end
$var reg 32 C data_out_4_4[31:0] $end
$var reg 32 D data_out_3_4[31:0] $end
$var reg 32 E data_out_2_4[31:0] $end
$var reg 32 F data_out_1_4[31:0] $end
$var reg 1 G data_out_ok $end
$var reg 1 H data_out_ack $end
$var reg 1 I horl_t $end
$var reg 1 J clr_t $end
$var reg 32 K key_in_4_4_t[31:0] $end
$var reg 32 L key_in_3_4_t[31:0] $end
$var reg 32 M key_in_2_4_t[31:0] $end
$var reg 32 N key_in_1_4_t[31:0] $end
$var reg 1 O key_in_ok_t $end
$var reg 1 P key_in_ack_t $end
$var reg 32 Q data_in_4_4_t[31:0] $end
$var reg 32 R data_in_3_4_t[31:0] $end
$var reg 32 S data_in_2_4_t[31:0] $end
$var reg 32 T data_in_1_4_t[31:0] $end
$var reg 1 U data_in_ok_t $end
$var reg 1 V data_in_ack_t $end
$var reg 32 W data_out_4_4_t[31:0] $end
$var reg 32 X data_out_3_4_t[31:0] $end
$var reg 32 Y data_out_2_4_t[31:0] $end
$var reg 32 Z data_out_1_4_t[31:0] $end
$var reg 1 [ data_out_ok_t $end
$var reg 1 \ data_out_ack_t $end
$var reg 4 ] nb_tour[3:0] $end
$var reg 2 ^ etat_mux[1:0] $end
$var reg 2 _ etat_ksch[1:0] $end
$var reg 2 ` etat_add[1:0] $end
$var reg 2 a etat_demux[1:0] $end
$var reg 2 b etat_sub[1:0] $end
$var reg 2 c etat_sh[1:0] $end
$var reg 2 d etat_mix[1:0] $end
$var reg 2 e etat_ordo_a[1:0] $end
$var reg 2 f etat_ordo_b[1:0] $end
$var reg 128 g ksch_add_key[127:0] $end
$var reg 1 h ksch_add_key_ok $end
$var reg 1 i add_ksch_ack_key $end
$var reg 128 j mux_add_data[127:0] $end
$var reg 1 k mux_add_data_ok $end
$var reg 1 l add_mux_ack_data $end
$var reg 128 m add_demux_data[127:0] $end
$var reg 1 n add_demux_data_ok $end
$var reg 1 o demux_add_ack_data $end
$var reg 128 p demux_sub_data[127:0] $end
$var reg 1 q demux_sub_data_ok $end
$var reg 1 r sub_demux_ack_data $end
$var reg 128 s sub_sh_data[127:0] $end
$var reg 1 t sub_sh_data_ok $end
$var reg 1 u sh_sub_ack_data $end
$var reg 128 v sh_mix_data[127:0] $end
$var reg 1 w sh_mix_data_ok $end
$var reg 1 x mix_sh_ack_data $end
$var reg 128 y mix_mux_data[127:0] $end
$var reg 1 z mix_mux_data_ok $end
$var reg 1 { mux_mix_ack_data $end
$var reg 128 | ordo_mux_data[127:0] $end
$var reg 1 } ordo_mux_data_ok $end
$var reg 1 !" mux_ordo_ack_data $end
$var reg 128 "" ordo_ksch_data[127:0] $end
$var reg 1 #" ordo_ksch_data_ok $end
$var reg 1 $" ksch_ordo_ack_data $end
$var reg 128 %" demux_ordo_data[127:0] $end
$var reg 1 &" demux_ordo_data_ok $end
$var reg 1 '" ordo_demux_ack_data $end
$scope module u0 $end
$var reg 1 (" horl $end
$var reg 1 )" clr $end
$var reg 4 *" sel[3:0] $end
$var reg 128 +" data_in_a[127:0] $end
$var reg 1 ," data_in_ok_a $end
$var reg 128 -" data_in_b[127:0] $end
$var reg 1 ." data_in_ok_b $end
$var reg 128 /" data_out[127:0] $end
$var reg 1 0" data_out_ok $end
$var reg 1 1" ack_data_in_a $end
$var reg 1 2" ack_data_in_b $end
$var reg 1 3" ack_data_out $end
$var reg 2 4" etat[1:0] $end
$comment etat_courant is not handled $end
$var integer 32 5" sel_t $end
$var reg 128 6" data_out_t[127:0] $end
$var reg 1 7" data_out_ok_t $end
$var reg 1 8" ack_data_in_a_t $end
$var reg 1 9" ack_data_in_b_t $end
$var reg 2 :" etat_t[1:0] $end
$upscope $end
$scope module u1 $end
$var reg 1 ;" horl $end
$var reg 1 <" clr $end
$var reg 4 =" round_in[3:0] $end
$var reg 128 >" key_in[127:0] $end
$var reg 1 ?" key_in_ok $end
$var reg 128 @" key_out[127:0] $end
$var reg 1 A" key_out_ok $end
$var reg 1 B" ack_key_in $end
$var reg 1 C" ack_key_out $end
$var reg 2 D" etat[1:0] $end
$comment etat_courant is not handled $end
$var integer 32 E" round_in_t $end
$var reg 1 F" key_in_ok_t $end
$var reg 128 G" key_out_t[127:0] $end
$var reg 1 H" key_out_ok_t $end
$var reg 1 I" ack_key_in_t $end
$var reg 2 J" etat_t[1:0] $end
$upscope $end
$scope module u2 $end
$var reg 1 K" horl $end
$var reg 1 L" clr $end
$var reg 128 M" key_in[127:0] $end
$var reg 1 N" key_in_ok $end
$var reg 128 O" data_in[127:0] $end
$var reg 1 P" data_in_ok $end
$var reg 128 Q" data_out[127:0] $end
$var reg 1 R" data_out_ok $end
$var reg 1 S" ack_data_in $end
$var reg 1 T" ack_key_in $end
$var reg 1 U" ack_data_out $end
$var reg 2 V" etat[1:0] $end
$comment etat_courant is not handled $end
$var reg 128 W" data_out_t[127:0] $end
$var reg 1 X" data_out_ok_t $end
$var reg 1 Y" ack_data_in_t $end
$var reg 1 Z" ack_key_in_t $end
$var reg 2 [" etat_t[1:0] $end
$upscope $end
$scope module u3 $end
$var reg 1 \" horl $end
$var reg 1 ]" clr $end
$var reg 4 ^" sel[3:0] $end
$var reg 128 _" data_in[127:0] $end
$var reg 1 `" data_in_ok $end
$var reg 128 a" data_out_a[127:0] $end
$var reg 1 b" data_out_ok_a $end
$var reg 128 c" data_out_b[127:0] $end
$var reg 1 d" data_out_ok_b $end
$var reg 1 e" ack_data_in $end
$var reg 1 f" ack_data_out_a $end
$var reg 1 g" ack_data_out_b $end
$var reg 2 h" etat[1:0] $end
$comment etat_courant is not handled $end
$var integer 32 i" sel_t $end
$var reg 128 j" data_out_a_t[127:0] $end
$var reg 1 k" data_out_ok_a_t $end
$var reg 128 l" data_out_b_t[127:0] $end
$var reg 1 m" data_out_ok_b_t $end
$var reg 1 n" ack_data_in_t $end
$var reg 2 o" etat_t[1:0] $end
$upscope $end
$scope module u4 $end
$var reg 1 p" horl $end
$var reg 1 q" clr $end
$var reg 128 r" data_in[127:0] $end
$var reg 1 s" data_in_ok $end
$var reg 128 t" data_out[127:0] $end
$var reg 1 u" data_out_ok $end
$var reg 1 v" ack_data_in $end
$var reg 1 w" ack_data_out $end
$var reg 2 x" etat[1:0] $end
$comment etat_courant is not handled $end
$var reg 128 y" data_out_t[127:0] $end
$var reg 1 z" data_out_ok_t $end
$var reg 1 {" ack_data_in_t $end
$var reg 2 |" etat_t[1:0] $end
$upscope $end
$scope module u5 $end
$var reg 1 }" horl $end
$var reg 1 !# clr $end
$var reg 128 "# data_in[127:0] $end
$var reg 1 ## data_in_ok $end
$var reg 128 $# data_out[127:0] $end
$var reg 1 %# data_out_ok $end
$var reg 1 &# ack_data_in $end
$var reg 1 '# ack_data_out $end
$var reg 2 (# etat[1:0] $end
$comment etat_courant is not handled $end
$var reg 128 )# data_out_t[127:0] $end
$var reg 1 *# data_out_ok_t $end
$var reg 1 +# ack_data_in_t $end
$var reg 2 ,# etat_t[1:0] $end
$upscope $end
$scope module u6 $end
$var reg 1 -# horl $end
$var reg 1 .# clr $end
$var reg 4 /# round_in[3:0] $end
$var reg 128 0# data_in[127:0] $end
$var reg 1 1# data_in_ok $end
$var reg 128 2# data_out[127:0] $end
$var reg 1 3# data_out_ok $end
$var reg 1 4# ack_data_in $end
$var reg 1 5# ack_data_out $end
$var reg 2 6# etat[1:0] $end
$comment etat_courant is not handled $end
$var integer 32 7# round_in_t $end
$var reg 128 8# data_out_t[127:0] $end
$var reg 1 9# data_out_ok_t $end
$var reg 1 :# ack_data_in_t $end
$var reg 2 ;# etat_t[1:0] $end
$upscope $end
$scope module u7 $end
$var reg 1 <# clr $end
$var reg 1 =# raz $end
$var reg 1 ># tour_inc_in $end
$var reg 4 ?# tour_out[3:0] $end
$var integer 32 @# tour_out_t $end
$upscope $end
$scope module u8 $end
$var reg 1 A# horl $end
$var reg 1 B# clr $end
$var reg 32 C# data_in_4_4_a[31:0] $end
$var reg 32 D# data_in_3_4_a[31:0] $end
$var reg 32 E# data_in_2_4_a[31:0] $end
$var reg 32 F# data_in_1_4_a[31:0] $end
$var reg 1 G# data_in_ok_a $end
$var reg 32 H# key_in_4_4_a[31:0] $end
$var reg 32 I# key_in_3_4_a[31:0] $end
$var reg 32 J# key_in_2_4_a[31:0] $end
$var reg 32 K# key_in_1_4_a[31:0] $end
$var reg 1 L# key_in_ok_a $end
$var reg 128 M# data_out_b[127:0] $end
$var reg 1 N# data_out_ok_b $end
$var reg 128 O# key_out_b[127:0] $end
$var reg 1 P# key_out_ok_b $end
$var reg 1 Q# ack_data_in_a $end
$var reg 1 R# ack_key_in_a $end
$var reg 1 S# ack_data_out_b $end
$var reg 1 T# ack_key_out_b $end
$var reg 2 U# etat_in[1:0] $end
$var reg 128 V# data_in_b[127:0] $end
$var reg 1 W# data_in_ok_b $end
$var reg 32 X# data_out_4_4_a[31:0] $end
$var reg 32 Y# data_out_3_4_a[31:0] $end
$var reg 32 Z# data_out_2_4_a[31:0] $end
$var reg 32 [# data_out_1_4_a[31:0] $end
$var reg 1 \# data_out_ok_a $end
$var reg 1 ]# ack_data_in_b $end
$var reg 1 ^# ack_data_out_a $end
$var reg 2 _# etat_out[1:0] $end
$comment etat_courant_a is not handled $end
$comment etat_courant_b is not handled $end
$var integer 32 `# operation $end
$var integer 32 a# operation_data $end
$var integer 32 b# operation_key $end
$var reg 128 c# mem_key[127:0] $end
$var reg 128 d# data_out_b_t[127:0] $end
$var reg 1 e# data_out_ok_b_t $end
$var reg 128 f# key_out_b_t[127:0] $end
$var reg 1 g# key_out_ok_b_t $end
$var reg 1 h# ack_data_in_a_t $end
$var reg 1 i# ack_key_in_a_t $end
$var reg 2 j# etat_in_t[1:0] $end
$var reg 32 k# data_out_4_4_a_t[31:0] $end
$var reg 32 l# data_out_3_4_a_t[31:0] $end
$var reg 32 m# data_out_2_4_a_t[31:0] $end
$var reg 32 n# data_out_1_4_a_t[31:0] $end
$var reg 1 o# data_out_ok_a_t $end
$var reg 1 p# ack_data_in_b_t $end
$var reg 2 q# etat_out_t[1:0] $end
$upscope $end
$upscope $end
$enddefinitions $end
#0
0!
0"
b00000000000000000000000000000000 #
b00000000000000000000000000000000 $
b00000000000000000000000000000000 %
b00000000000000000000000000000000 &
0'
0(
b00000000000000000000000000000000 )
b00000000000000000000000000000000 *
b00000000000000000000000000000000 +
b00000000000000000000000000000000 ,
0-
0.
b00000000000000000000000000000000 /
b00000000000000000000000000000000 0
b00000000000000000000000000000000 1
b00000000000000000000000000000000 2
03
04
05
06
b00000000000000000000000000000000 7
b00000000000000000000000000000000 8
b00000000000000000000000000000000 9
b00000000000000000000000000000000 :
0;
0<
b00000000000000000000000000000000 =
b00000000000000000000000000000000 >
b00000000000000000000000000000000 ?
b00000000000000000000000000000000 @
0A
0B
b00000000000000000000000000000000 C
b00000000000000000000000000000000 D
b00000000000000000000000000000000 E
b00000000000000000000000000000000 F
0G
0H
0I
0J
b00000000000000000000000000000000 K
b00000000000000000000000000000000 L
b00000000000000000000000000000000 M
b00000000000000000000000000000000 N
0O
0P
b00000000000000000000000000000000 Q
b00000000000000000000000000000000 R
b00000000000000000000000000000000 S
b00000000000000000000000000000000 T
0U
0V
b00000000000000000000000000000000 W
b00000000000000000000000000000000 X
b00000000000000000000000000000000 Y
b00000000000000000000000000000000 Z
0[
0\
b0000 ]
b10 ^
b10 _
b10 `
b10 a
b10 b
b10 c
b10 d
b10 e
b10 f
b00000000000000000000000000000000000000000000000000000000000000000000000000000000000000000000000000000000000000000000000000000000 g
0h
0i
b00000000000000000000000000000000000000000000000000000000000000000000000000000000000000000000000000000000000000000000000000000000 j
0k
0l
b00000000000000000000000000000000000000000000000000000000000000000000000000000000000000000000000000000000000000000000000000000000 m
0n
0o
b00000000000000000000000000000000000000000000000000000000000000000000000000000000000000000000000000000000000000000000000000000000 p
0q
0r
b00000000000000000000000000000000000000000000000000000000000000000000000000000000000000000000000000000000000000000000000000000000 s
0t
0u
b00000000000000000000000000000000000000000000000000000000000000000000000000000000000000000000000000000000000000000000000000000000 v
0w
0x
b00000000000000000000000000000000000000000000000000000000000000000000000000000000000000000000000000000000000000000000000000000000 y
0z
0{
b00000000000000000000000000000000000000000000000000000000000000000000000000000000000000000000000000000000000000000000000000000000 |
0}
0!"
b00000000000000000000000000000000000000000000000000000000000000000000000000000000000000000000000000000000000000000000000000000000 ""
0#"
0$"
b00000000000000000000000000000000000000000000000000000000000000000000000000000000000000000000000000000000000000000000000000000000 %"
0&"
0'"
0("
0)"
b0000 *"
b00000000000000000000000000000000000000000000000000000000000000000000000000000000000000000000000000000000000000000000000000000000 +"
0,"
b00000000000000000000000000000000000000000000000000000000000000000000000000000000000000000000000000000000000000000000000000000000 -"
0."
b00000000000000000000000000000000000000000000000000000000000000000000000000000000000000000000000000000000000000000000000000000000 /"
00"
01"
02"
03"
b10 4"
b0 5"
b00000000000000000000000000000000000000000000000000000000000000000000000000000000000000000000000000000000000000000000000000000000 6"
07"
08"
09"
b10 :"
0;"
0<"
b0000 ="
b00000000000000000000000000000000000000000000000000000000000000000000000000000000000000000000000000000000000000000000000000000000 >"
0?"
b00000000000000000000000000000000000000000000000000000000000000000000000000000000000000000000000000000000000000000000000000000000 @"
0A"
0B"
0C"
b10 D"
b0 E"
0F"
b00000000000000000000000000000000000000000000000000000000000000000000000000000000000000000000000000000000000000000000000000000000 G"
0H"
0I"
b10 J"
0K"
0L"
b00000000000000000000000000000000000000000000000000000000000000000000000000000000000000000000000000000000000000000000000000000000 M"
0N"
b00000000000000000000000000000000000000000000000000000000000000000000000000000000000000000000000000000000000000000000000000000000 O"
0P"
b00000000000000000000000000000000000000000000000000000000000000000000000000000000000000000000000000000000000000000000000000000000 Q"
0R"
0S"
0T"
0U"
b10 V"
b00000000000000000000000000000000000000000000000000000000000000000000000000000000000000000000000000000000000000000000000000000000 W"
0X"
0Y"
0Z"
b10 ["
0\"
0]"
b0000 ^"
b00000000000000000000000000000000000000000000000000000000000000000000000000000000000000000000000000000000000000000000000000000000 _"
0`"
b00000000000000000000000000000000000000000000000000000000000000000000000000000000000000000000000000000000000000000000000000000000 a"
0b"
b00000000000000000000000000000000000000000000000000000000000000000000000000000000000000000000000000000000000000000000000000000000 c"
0d"
0e"
0f"
0g"
b10 h"
b0 i"
b00000000000000000000000000000000000000000000000000000000000000000000000000000000000000000000000000000000000000000000000000000000 j"
0k"
b00000000000000000000000000000000000000000000000000000000000000000000000000000000000000000000000000000000000000000000000000000000 l"
0m"
0n"
b10 o"
0p"
0q"
b00000000000000000000000000000000000000000000000000000000000000000000000000000000000000000000000000000000000000000000000000000000 r"
0s"
b00000000000000000000000000000000000000000000000000000000000000000000000000000000000000000000000000000000000000000000000000000000 t"
0u"
0v"
0w"
b10 x"
b00000000000000000000000000000000000000000000000000000000000000000000000000000000000000000000000000000000000000000000000000000000 y"
0z"
0{"
b10 |"
0}"
0!#
b00000000000000000000000000000000000000000000000000000000000000000000000000000000000000000000000000000000000000000000000000000000 "#
0##
b00000000000000000000000000000000000000000000000000000000000000000000000000000000000000000000000000000000000000000000000000000000 $#
0%#
0&#
0'#
b10 (#
b00000000000000000000000000000000000000000000000000000000000000000000000000000000000000000000000000000000000000000000000000000000 )#
0*#
0+#
b10 ,#
0-#
0.#
b0000 /#
b00000000000000000000000000000000000000000000000000000000000000000000000000000000000000000000000000000000000000000000000000000000 0#
01#
b00000000000000000000000000000000000000000000000000000000000000000000000000000000000000000000000000000000000000000000000000000000 2#
03#
04#
05#
b10 6#
b0 7#
b00000000000000000000000000000000000000000000000000000000000000000000000000000000000000000000000000000000000000000000000000000000 8#
09#
0:#
b10 ;#
0<#
0=#
0>#
b0000 ?#
b0 @#
0A#
0B#
b00000000000000000000000000000000 C#
b00000000000000000000000000000000 D#
b00000000000000000000000000000000 E#
b00000000000000000000000000000000 F#
0G#
b00000000000000000000000000000000 H#
b00000000000000000000000000000000 I#
b00000000000000000000000000000000 J#
b00000000000000000000000000000000 K#
0L#
b00000000000000000000000000000000000000000000000000000000000000000000000000000000000000000000000000000000000000000000000000000000 M#
0N#
b00000000000000000000000000000000000000000000000000000000000000000000000000000000000000000000000000000000000000000000000000000000 O#
0P#
0Q#
0R#
0S#
0T#
b10 U#
b00000000000000000000000000000000000000000000000000000000000000000000000000000000000000000000000000000000000000000000000000000000 V#
0W#
b00000000000000000000000000000000 X#
b00000000000000000000000000000000 Y#
b00000000000000000000000000000000 Z#
b00000000000000000000000000000000 [#
0\#
0]#
0^#
b10 _#
b0 `#
b0 a#
b0 b#
b00000000000000000000000000000000000000000000000000000000000000000000000000000000000000000000000000000000000000000000000000000000 c#
b00000000000000000000000000000000000000000000000000000000000000000000000000000000000000000000000000000000000000000000000000000000 d#
0e#
b00000000000000000000000000000000000000000000000000000000000000000000000000000000000000000000000000000000000000000000000000000000 f#
0g#
0h#
0i#
b10 j#
b00000000000000000000000000000000 k#
b00000000000000000000000000000000 l#
b00000000000000000000000000000000 m#
b00000000000000000000000000000000 n#
0o#
0p#
b10 q#
#10000000
1!
15
1I
1("
1;"
1K"
1\"
1p"
1}"
1-#
1A#
#20000000
0!
05
0I
0("
0;"
0K"
0\"
0p"
0}"
0-#
0A#
#25000000
b00001111000011100000110100001100 #
b00001011000010100000100100001000 $
b00000111000001100000010100000100 %
b00000011000000100000000100000000 &
b00001111000011100000110100001100 7
b00001011000010100000100100001000 8
b00000111000001100000010100000100 9
b00000011000000100000000100000000 :
b00001111000011100000110100001100 K
b00001011000010100000100100001000 L
b00000111000001100000010100000100 M
b00000011000000100000000100000000 N
b00001111000011100000110100001100 H#
b00001011000010100000100100001000 I#
b00000111000001100000010100000100 J#
b00000011000000100000000100000000 K#
#30000000
1!
15
1I
1("
1;"
1K"
1\"
1p"
1}"
1-#
1A#
#33000000
b11111111111011101101110111001100 )
b10111011101010101001100110001000 *
b01110111011001100101010101000100 +
b00110011001000100001000100000000 ,
b11111111111011101101110111001100 =
b10111011101010101001100110001000 >
b01110111011001100101010101000100 ?
b00110011001000100001000100000000 @
b11111111111011101101110111001100 Q
b10111011101010101001100110001000 R
b01110111011001100101010101000100 S
b00110011001000100001000100000000 T
b11111111111011101101110111001100 C#
b10111011101010101001100110001000 D#
b01110111011001100101010101000100 E#
b00110011001000100001000100000000 F#
#40000000
0!
05
0I
0("
0;"
0K"
0\"
0p"
0}"
0-#
0A#
#50000000
1!
15
1I
1("
1;"
1K"
1\"
1p"
1}"
1-#
1A#
#60000000
0!
05
0I
0("
0;"
0K"
0\"
0p"
0}"
0-#
0A#
#70000000
1!
15
1I
1("
1;"
1K"
1\"
1p"
1}"
1-#
1A#
#75000000
1'
1;
1O
1L#
b1 `#
b1 b#
#80000000
0!
05
0I
0("
0;"
0K"
0\"
0p"
0}"
0-#
0A#
#90000000
1!
15
1I
1("
1;"
1K"
1\"
1p"
1}"
1-#
1A#
#100000000
0!
1-
05
1A
0I
1U
0("
0;"
0K"
0\"
0p"
0}"
0-#
0A#
1G#
b10 `#
b1 a#
#110000000
1!
1(
1.
15
1<
1B
1I
1P
1V
b00 e
b11111111111011101101110111001100101110111010101010011001100010000111011101100110010101010100010000110011001000100001000100000000 |
1}
b00001111000011100000110100001100000010110000101000001001000010000000011100000110000001010000010000000011000000100000000100000000 ""
1#"
1("
b11111111111011101101110111001100101110111010101010011001100010000111011101100110010101010100010000110011001000100001000100000000 +"
1,"
1;"
b00001111000011100000110100001100000010110000101000001001000010000000011100000110000001010000010000000011000000100000000100000000 >"
1?"
1F"
1K"
1\"
1p"
1}"
1-#
1A#
b11111111111011101101110111001100101110111010101010011001100010000111011101100110010101010100010000110011001000100001000100000000 M#
1N#
b00001111000011100000110100001100000010110000101000001001000010000000011100000110000001010000010000000011000000100000000100000000 O#
1P#
1Q#
1R#
b00 U#
b00001111000011100000110100001100000010110000101000001001000010000000011100000110000001010000010000000011000000100000000100000000 c#
b11111111111011101101110111001100101110111010101010011001100010000111011101100110010101010100010000110011001000100001000100000000 d#
1e#
b00001111000011100000110100001100000010110000101000001001000010000000011100000110000001010000010000000011000000100000000100000000 f#
1g#
1h#
1i#
b00 j#
#120000000
0!
05
0I
0("
0;"
0K"
0\"
0p"
0}"
0-#
0A#
#130000000
1!
15
1I
b00 ^
b00 _
b11 e
b00001111000011100000110100001100000010110000101000001001000010000000011100000110000001010000010000000011000000100000000100000000 g
1h
b11111111111011101101110111001100101110111010101010011001100010000111011101100110010101010100010000110011001000100001000100000000 j
1k
1!"
1$"
1("
b11111111111011101101110111001100101110111010101010011001100010000111011101100110010101010100010000110011001000100001000100000000 /"
10"
11"
b00 4"
b11111111111011101101110111001100101110111010101010011001100010000111011101100110010101010100010000110011001000100001000100000000 6"
17"
18"
b00 :"
1;"
b00001111000011100000110100001100000010110000101000001001000010000000011100000110000001010000010000000011000000100000000100000000 @"
1A"
1B"
b00 D"
b00001111000011100000110100001100000010110000101000001001000010000000011100000110000001010000010000000011000000100000000100000000 G"
1H"
1I"
b00 J"
1K"
b00001111000011100000110100001100000010110000101000001001000010000000011100000110000001010000010000000011000000100000000100000000 M"
1N"
b11111111111011101101110111001100101110111010101010011001100010000111011101100110010101010100010000110011001000100001000100000000 O"
1P"
1\"
1p"
1}"
1-#
1A#
1S#
1T#
b11 U#
b11 j#
#140000000
0!
05
0I
0("
0;"
0K"
0\"
0p"
0}"
0-#
0A#
#150000000
1!
0(
0.
15
0<
0B
1I
0P
0V
b0001 ]
b11 ^
b11 _
b00 `
b01 e
1i
1l
b11110000111000001101000011000000101100001010000010010000100000000111000001100000010100000100000000110000001000000001000000000000 m
1n
b00000000000000000000000000000000000000000000000000000000000000000000000000000000000000000000000000000000000000000000000000000000 |
0}
b00000000000000000000000000000000000000000000000000000000000000000000000000000000000000000000000000000000000000000000000000000000 ""
0#"
1("
b0001 *"
b00000000000000000000000000000000000000000000000000000000000000000000000000000000000000000000000000000000000000000000000000000000 +"
0,"
13"
b11 4"
b1 5"
b11 :"
1;"
b0001 ="
b00000000000000000000000000000000000000000000000000000000000000000000000000000000000000000000000000000000000000000000000000000000 >"
0?"
1C"
b11 D"
b1 E"
b11 J"
1K"
b11110000111000001101000011000000101100001010000010010000100000000111000001100000010100000100000000110000001000000001000000000000 Q"
1R"
1S"
1T"
b00 V"
b11110000111000001101000011000000101100001010000010010000100000000111000001100000010100000100000000110000001000000001000000000000 W"
1X"
1Y"
1Z"
b00 ["
1\"
b0001 ^"
b11110000111000001101000011000000101100001010000010010000100000000111000001100000010100000100000000110000001000000001000000000000 _"
1`"
b1 i"
1p"
1}"
1-#
b0001 /#
b1 7#
1>#
b0001 ?#
b1 @#
1A#
b00000000000000000000000000000000000000000000000000000000000000000000000000000000000000000000000000000000000000000000000000000000 M#
0N#
b00000000000000000000000000000000000000000000000000000000000000000000000000000000000000000000000000000000000000000000000000000000 O#
0P#
0Q#
0R#
b01 U#
b0 `#
b0 a#
b0 b#
b00000000000000000000000000000000000000000000000000000000000000000000000000000000000000000000000000000000000000000000000000000000 d#
0e#
b00000000000000000000000000000000000000000000000000000000000000000000000000000000000000000000000000000000000000000000000000000000 f#
0g#
0h#
0i#
b01 j#
#160000000
0!
05
0I
0("
0;"
0K"
0\"
0p"
0}"
0-#
0A#
#170000000
1!
15
1I
b01 ^
b01 _
b11 `
b00 a
b00000000000000000000000000000000000000000000000000000000000000000000000000000000000000000000000000000000000000000000000000000000 g
0h
b00000000000000000000000000000000000000000000000000000000000000000000000000000000000000000000000000000000000000000000000000000000 j
1o
b11110000111000001101000011000000101100001010000010010000100000000111000001100000010100000100000000110000001000000001000000000000 p
1q
0!"
0$"
1("
b00000000000000000000000000000000000000000000000000000000000000000000000000000000000000000000000000000000000000000000000000000000 /"
01"
b01 4"
b00000000000000000000000000000000000000000000000000000000000000000000000000000000000000000000000000000000000000000000000000000000 6"
08"
b01 :"
1;"
b00000000000000000000000000000000000000000000000000000000000000000000000000000000000000000000000000000000000000000000000000000000 @"
0A"
0B"
b01 D"
b00000000000000000000000000000000000000000000000000000000000000000000000000000000000000000000000000000000000000000000000000000000 G"
0H"
0I"
b01 J"
1K"
b00000000000000000000000000000000000000000000000000000000000000000000000000000000000000000000000000000000000000000000000000000000 M"
0N"
b00000000000000000000000000000000000000000000000000000000000000000000000000000000000000000000000000000000000000000000000000000000 O"
1U"
b11 V"
b11 ["
1\"
b11110000111000001101000011000000101100001010000010010000100000000111000001100000010100000100000000110000001000000001000000000000 c"
1d"
1e"
b00 h"
b11110000111000001101000011000000101100001010000010010000100000000111000001100000010100000100000000110000001000000001000000000000 l"
1m"
1n"
b00 o"
1p"
b11110000111000001101000011000000101100001010000010010000100000000111000001100000010100000100000000110000001000000001000000000000 r"
1s"
1}"
1-#
1A#
0S#
0T#
#180000000
0!
05
0I
0("
0;"
0K"
0\"
0p"
0}"
0-#
0A#
#190000000
1!
15
1I
b10 ^
b10 _
b01 `
b11 a
b00 b
0i
0k
0l
b00000000000000000000000000000000000000000000000000000000000000000000000000000000000000000000000000000000000000000000000000000000 m
0n
1r
b10001100111000010111000010111010111001111110000001100000110011010101000111010000010100110000100100000100101101111100101001100011 s
1t
1("
00"
03"
b10 4"
07"
b10 :"
1;"
0C"
b10 D"
b10 J"
1K"
0P"
b00000000000000000000000000000000000000000000000000000000000000000000000000000000000000000000000000000000000000000000000000000000 Q"
0R"
0S"
0T"
b01 V"
b00000000000000000000000000000000000000000000000000000000000000000000000000000000000000000000000000000000000000000000000000000000 W"
0X"
0Y"
0Z"
b01 ["
1\"
b00000000000000000000000000000000000000000000000000000000000000000000000000000000000000000000000000000000000000000000000000000000 _"
0`"
1g"
b11 h"
b11 o"
1p"
b10001100111000010111000010111010111001111110000001100000110011010101000111010000010100110000100100000100101101111100101001100011 t"
1u"
1v"
b00 x"
b10001100111000010111000010111010111001111110000001100000110011010101000111010000010100110000100100000100101101111100101001100011 y"
1z"
1{"
b00 |"
1}"
b10001100111000010111000010111010111001111110000001100000110011010101000111010000010100110000100100000100101101111100101001100011 "#
1##
1-#
0>#
1A#
#200000000
0!
05
0I
0("
0;"
0K"
0\"
0p"
0}"
0-#
0A#
#210000000
1!
15
1I
b00 _
b10 `
b01 a
b11 b
b00 c
b11111110011101101010101111010110111100010111100010100110110110101111101001110010101011111101001011111101011101001010101011010110 g
1h
0o
b00000000000000000000000000000000000000000000000000000000000000000000000000000000000000000000000000000000000000000000000000000000 p
0q
1u
b11100111110100001100101010111010010100011011011101110000110011010000010011100001011000000000100110001100111000000101001101100011 v
1w
1("
1;"
b11111110011101101010101111010110111100010111100010100110110110101111101001110010101011111101001011111101011101001010101011010110 @"
1A"
b00 D"
b11111110011101101010101111010110111100010111100010100110110110101111101001110010101011111101001011111101011101001010101011010110 G"
1H"
b00 J"
1K"
b11111110011101101010101111010110111100010111100010100110110110101111101001110010101011111101001011111101011101001010101011010110 M"
1N"
0U"
b10 V"
b10 ["
1\"
b00000000000000000000000000000000000000000000000000000000000000000000000000000000000000000000000000000000000000000000000000000000 c"
0d"
0e"
b01 h"
b00000000000000000000000000000000000000000000000000000000000000000000000000000000000000000000000000000000000000000000000000000000 l"
0m"
0n"
b01 o"
1p"
b00000000000000000000000000000000000000000000000000000000000000000000000000000000000000000000000000000000000000000000000000000000 r"
0s"
1w"
b11 x"
b11 |"
1}"
b11100111110100001100101010111010010100011011011101110000110011010000010011100001011000000000100110001100111000000101001101100011 $#
1%#
1&#
b00 (#
b11100111110100001100101010111010010100011011011101110000110011010000010011100001011000000000100110001100111000000101001101100011 )#
1*#
1+#
b00 ,#
1-#
b11100111110100001100101010111010010100011011011101110000110011010000010011100001011000000000100110001100111000000101001101100011 0#
11#
1A#
#220000000
0!
05
0I
0("
0;"
0K"
0\"
0p"
0}"
0-#
0A#
